<?xml version="1.0" encoding="UTF-8" standalone="no"?>
<svg xmlns="http://www.w3.org/2000/svg" xml:space="preserve" height="119.46" width="300.65" version="1.1" viewBox="0 0 300.65 119.463">
<path id="bgColor00" fill="#044382" d="m295.57 14.9c-0.96-5.656-5.82-9.977-11.66-9.977h-267.16c-6.535 0-11.852 5.393-11.852 12.018v85.581c0 5.822 4.104 10.687 9.536 11.783 0.749 0.152 1.521 0.23 2.314 0.23h267.16c0.151 0 0.298-0.016 0.446-0.021 6.327-0.242 11.403-5.521 11.403-11.992v-85.581c0.003-0.695-0.07-1.375-0.183-2.041z"/>
<linearGradient id="path22_1_" y2="-130.56" gradientUnits="userSpaceOnUse" x2="390.93" gradientTransform="matrix(1 0 0 -1 -106 -75.537)" y1="-130.56" x1="121.72">
	<stop stop-color="#fff" stop-opacity="0" offset="0"/>
	<stop stop-color="#fff" stop-opacity=".2" offset="1"/>
</linearGradient>
<path fill="url(#path22_1_)" d="m284.93 87.024c0 6.578-5.302 11.906-11.842 11.906h-245.53c-6.537 0-11.837-5.328-11.837-11.906v-64c0-6.582 5.3-11.91 11.837-11.91h245.53c6.54 0 11.842 5.328 11.842 11.91v64z"/>
<path fill-opacity="0" d="m284.4 90.306c-1.406 4.922-5.887 8.534-11.231 8.616l11.122 15.595c6.352-0.242 11.445-5.521 11.445-11.992v-0.767l-11.34-11.454z"/>
<path fill-opacity="0" d="m295.56 14.9-10.704 7.762c0.002 0.121 0.019 0.24 0.019 0.363v64c0 1.14-0.169 2.236-0.468 3.279l11.336 11.453v-84.819c-0.001-0.695-0.072-1.375-0.183-2.041z"/>
<path fill-opacity="0" d="m284.85 22.662 10.71-7.762c-0.97-5.656-5.85-9.977-11.72-9.977h-1.949l-6.474 6.443c5.28 1.101 9.266 5.716 9.432 11.296z"/>
<path fill-opacity="0" d="m27.559 11.115h245.53c0.833 0 1.645 0.088 2.426 0.252l6.448-6.443h-262.24l5.053 6.533c0.892-0.217 1.82-0.342 2.778-0.342z"/>
		<linearGradient id="path62_1_" y2="-74.547" gradientUnits="userSpaceOnUse" x2="129.41" gradientTransform="matrix(1 0 0 -1 -106 -75.537)" y1="-109.01" x1="107.51">
		<stop stop-color="#fff" stop-opacity="0.6" offset=".0056"/>
		<stop stop-color="#fff" stop-opacity="0" offset=".9152"/>
	</linearGradient>
	<path fill="url(#path62_1_)" d="m15.762 23.025c0-5.617 3.874-10.309 9.082-11.568l-5.066-6.533h-2.989c-6.553 0-11.883 5.393-11.883 12.018v0.623l10.856 6.188v-0.728z"/>
<polygon opacity=".4" points="4.905 98.272 15.762 86.873 15.762 23.752 4.905 17.564" fill="#fff"/>
		<linearGradient id="path75_1_" y2="-192.58" gradientUnits="userSpaceOnUse" x2="134.04" gradientTransform="matrix(1 0 0 -1 -106 -75.537)" y1="-156.3" x1="102.02">
		<stop stop-color="#fff" stop-opacity="0.6" offset=".0056"/>
		<stop stop-color="#fff" stop-opacity="0" offset=".80610"/>
	</linearGradient>
	<path fill="url(#path75_1_)" d="m15.762 87.024v-0.151l-10.856 11.399v4.25c0 5.822 4.116 10.687 9.562 11.783l9.822-15.856c-4.928-1.448-8.528-6.006-8.528-11.42z"/>
<g opacity="0">
	<path fill="#fff" d="m273.09 98.933h-245.53c-1.158 0-2.273-0.177-3.331-0.486l-9.798 15.861c0.749 0.151 1.521 0.229 2.314 0.229h267.16c0.151 0 0.298-0.017 0.446-0.021l-11.08-15.595c-0.06 0.003-0.122 0.012-0.183 0.012z"/>
</g>
<g opacity=".5">
	<path d="m286.36 0h-272.06c-7.902 0-14.3 6.482-14.3 14.48v90.503c0 7.998 6.398 14.479 14.295 14.479h272.06c7.894 0 14.292-6.479 14.292-14.479v-90.5c0-7.998-6.4-14.48-14.29-14.48zm12.71 104.98c0 7.105-5.7 12.886-12.71 12.886h-272.06c-7.009 0-12.713-5.779-12.713-12.886v-90.5c-0.005-7.105 5.699-12.889 12.708-12.889h272.06c7.01 0 12.71 5.783 12.71 12.889v90.503z"/>
</g>
<path d="m286.36 1.592h-272.06c-7.014 0-12.718 5.783-12.718 12.889v90.504c0 7.104 5.704 12.885 12.713 12.885h272.06c7.01 0 12.71-5.779 12.71-12.885v-90.5c0-7.105-5.7-12.888-12.71-12.888zm9.399 100.17v0.767c0 6.471-5.076 11.75-11.403 11.992-0.148 0.006-0.295 0.021-0.446 0.021h-267.16c-0.793 0-1.565-0.078-2.314-0.229-5.432-1.099-9.536-5.961-9.536-11.783v-85.583c0-6.625 5.315-12.018 11.852-12.018h267.15c5.847 0 10.706 4.32 11.665 9.977 0.112 0.666 0.186 1.346 0.186 2.041v84.815z"/>
<path opacity=".1" d="m273.09 9.605h-245.53c-7.353 0-13.332 6.02-13.332 13.42v63.998c0 7.396 5.979 13.416 13.332 13.416h245.53c7.355 0 13.337-6.021 13.337-13.416v-63.999c0.001-7.4-5.981-13.42-13.336-13.42zm9.596 77.417c0 5.32-4.305 9.65-9.597 9.65h-245.53c-5.287 0-9.593-4.33-9.593-9.65v-63.997c0-5.322 4.306-9.656 9.593-9.656h245.53c5.292 0 9.597 4.334 9.597 9.656v63.997z"/>
<linearGradient id="path116_1_" y2="-12.969" gradientUnits="userSpaceOnUse" x2="2.0104" gradientTransform="matrix(1 0 0 -1 -106 -75.537)" y1="-244.34" x1="483.15">
	<stop offset="0"/>
	<stop stop-color="#1a1a1a" offset=".53670"/>
	<stop stop-color="#1f1f1f" offset=".72960"/>
	<stop stop-color="#2d2d2d" offset=".96310"/>
	<stop stop-color="#303030" offset="1"/>
</linearGradient>
<path fill="url(#path116_1_)" d="m295.57 14.9c-0.96-5.656-5.82-9.977-11.66-9.977h-267.16c-6.535 0-11.852 5.393-11.852 12.018v85.581c0 5.822 4.104 10.687 9.536 11.783 0.749 0.152 1.521 0.23 2.314 0.23h267.16c0.151 0 0.298-0.016 0.446-0.021 6.327-0.242 11.403-5.521 11.403-11.992v-85.581c0.003-0.695-0.07-1.375-0.183-2.041zm-1.397 87.622c0 5.619-4.34 10.189-9.879 10.4l-0.389 0.021h-267.16l-2.002-0.201c-4.787-0.96-8.263-5.26-8.263-10.22v-85.58c0-5.748 4.608-10.424 10.27-10.424h267.16c5.006 0 9.256 3.639 10.105 8.65l0.161 1.773 0.002 85.582z"/>
</svg>
