<?xml version="1.0" encoding="UTF-8" standalone="no"?>
<svg
   xmlns:dc="http://purl.org/dc/elements/1.1/"
   xmlns:cc="http://creativecommons.org/ns#"
   xmlns:rdf="http://www.w3.org/1999/02/22-rdf-syntax-ns#"
   xmlns:svg="http://www.w3.org/2000/svg"
   xmlns="http://www.w3.org/2000/svg"
   width="800"
   height="200"
   viewBox="17.406 9.656 271.91008 67.95749"
   version="1.1"
   id="svg56">
  <metadata
     id="metadata62">
    <rdf:RDF>
      <cc:Work
         rdf:about="">
        <dc:format>image/svg+xml</dc:format>
        <dc:type
           rdf:resource="http://purl.org/dc/dcmitype/StillImage" />
        <dc:title></dc:title>
      </cc:Work>
    </rdf:RDF>
  </metadata>
  <defs
     id="defs60" />
  <linearGradient
     id="a"
     gradientUnits="userSpaceOnUse"
     x1="350.056"
     y1="251.82001"
     x2="346.13101"
     y2="251.634"
     gradientTransform="matrix(-92.8364,0,0,-92.8364,32798.066,23642.848)">
    <stop
       offset="0"
       stop-color="#fff"
       id="stop8" />
    <stop
       offset="1"
       stop-color="#242322"
       id="stop10" />
  </linearGradient>
  <linearGradient
     id="b"
     gradientUnits="userSpaceOnUse"
     x1="358.246"
     y1="260.595"
     x2="353.13501"
     y2="263.642"
     gradientTransform="matrix(97.112444,-26.021201,26.021201,97.112444,-40968.723,-15780.374)">
    <stop
       offset="0"
       stop-color="#fff"
       id="stop17" />
    <stop
       offset=".672"
       stop-color="#231f20"
       id="stop19" />
    <stop
       offset=".953"
       stop-color="#2d2b2c"
       id="stop21" />
    <stop
       offset="1"
       stop-color="#383738"
       id="stop23" />
  </linearGradient>
  <linearGradient
     id="c"
     gradientUnits="userSpaceOnUse"
     x1="4767.7349"
     y1="-3206.5779"
     x2="1637.915"
     y2="-3206.5779"
     gradientTransform="matrix(0,0.1441,-0.1441,0,-19.775,-216.035)">
    <stop
       offset="0"
       stop-color="#7b7979"
       id="stop28" />
    <stop
       offset="1"
       stop-color="#eae9ea"
       id="stop30" />
  </linearGradient>
  <linearGradient
     id="d"
     gradientUnits="userSpaceOnUse"
     x1="334.24899"
     y1="243.84"
     x2="332.69501"
     y2="252.576"
     gradientTransform="matrix(-16.490138,-19.652181,19.652181,-16.490138,746.57157,10722.114)">
    <stop
       offset="0"
       stop-color="#7b7979"
       id="stop35" />
    <stop
       offset="1"
       stop-color="#eae9ea"
       id="stop37" />
  </linearGradient>
  <linearGradient
     id="e"
     gradientUnits="userSpaceOnUse"
     x1="314.91599"
     y1="271.98099"
     x2="321.22101"
     y2="273.67001"
     gradientTransform="matrix(-4.501355,-16.799285,16.799285,-4.501355,-2788.3342,6647.1223)">
    <stop
       offset="0"
       stop-color="#acabab"
       id="stop42" />
    <stop
       offset="1"
       stop-color="#eae9ea"
       id="stop44" />
  </linearGradient>
  <linearGradient
     id="f"
     gradientUnits="userSpaceOnUse"
     x1="367.147"
     y1="289.51801"
     x2="363.237"
     y2="282.15201"
     gradientTransform="matrix(23.060802,-14.409989,14.409989,23.060802,-11940.552,-1253.4733)">
    <stop
       offset="0"
       stop-color="#7b7979"
       id="stop49" />
    <stop
       offset="1"
       stop-color="#eae9ea"
       id="stop51" />
  </linearGradient>
</svg>
