<?xml version="1.0" encoding="UTF-8" standalone="no"?>
<svg
   xmlns:dc="http://purl.org/dc/elements/1.1/"
   xmlns:cc="http://creativecommons.org/ns#"
   xmlns:rdf="http://www.w3.org/1999/02/22-rdf-syntax-ns#"
   xmlns:svg="http://www.w3.org/2000/svg"
   xmlns="http://www.w3.org/2000/svg"
   xml:space="preserve"
   enable-background="new 0.204 0.13 548 352.198"
   viewBox="0.204 0.13 548 352.198"
   height="352.198px"
   width="548px"
   y="0px"
   x="0px"
   id="Livello_1"
   version="1.1"><metadata
   id="metadata525"><rdf:RDF><cc:Work
       rdf:about=""><dc:format>image/svg+xml</dc:format><dc:type
         rdf:resource="http://purl.org/dc/dcmitype/StillImage" /><dc:title></dc:title></cc:Work></rdf:RDF></metadata><defs
   id="defs523">
	
	
	
	
	
	
	
	
	
	
	
	
	
	
	
	
	
	
	
	
	
	
</defs>
<circle
   cx="274.20001"
   cy="274.12701"
   r="62.220001"
   id="circle478" /><path
   enable-background="new    "
   d="M 92.897,327.999 C 87.834,310.924 85.1,292.846 85.1,274.129 85.1,169.692 169.763,85.03 274.2,85.03 c 104.434,0 189.097,84.658 189.097,189.099 0,18.723 -2.732,36.801 -7.802,53.878 l 81.494,23.854 c 7.434,-25.116 11.215,-51.149 11.215,-77.732 0,-36.951 -7.259,-72.845 -21.568,-106.682 C 512.833,134.811 493.085,105.518 467.949,80.381 442.816,55.246 413.522,35.497 380.884,21.696 347.048,7.385 311.157,0.13 274.204,0.13 237.253,0.13 201.36,7.387 167.524,21.696 134.887,35.501 105.593,55.246 80.456,80.383 55.321,105.52 35.577,134.811 21.771,167.451 7.459,201.284 0.204,237.177 0.204,274.128 c 0,26.583 3.777,52.612 11.211,77.729 z"
   id="path480"
   style="opacity:0.1;fill:#ffffff" /><path
   d="m 530.631,333.044 c -1.023,4.468 -2.177,8.961 -3.44,13.387 l -97.561,-29.521 -0.335,-0.102 h -85.121 c -0.984,1.613 -2.041,3.181 -3.135,4.718 h 87.558 l 101.783,30.802 0.672,-2.279 c 1.549,-5.252 2.954,-10.619 4.174,-15.955 z"
   id="path494"
   style="fill:#4d4d4d" /><path
   d="m 204.223,316.804 h -85.12 l -97.896,29.627 c -1.265,-4.428 -2.417,-8.919 -3.44,-13.389 l -4.599,1.051 c 1.22,5.334 2.622,10.699 4.174,15.953 l 0.673,2.277 101.782,-30.802 h 87.558 c -1.089,-1.534 -2.146,-3.1 -3.132,-4.717 z"
   id="path496"
   style="fill:#4d4d4d" /><g
   id="g516">
		<path
   d="m 310.159,274.362 h -1.125 c -0.598,0 -1.072,-0.486 -1.072,-1.082 l 0.035,-10.081 c 0.029,-1.492 -0.576,-2.521 -1.717,-3.339 -1.967,-1.417 -7.761,-5.528 -8.704,-6.142 -0.65,-0.425 -1.362,-0.596 -2.158,-0.588 l -9.981,-0.008 c -0.854,0 -1.537,-0.688 -1.537,-1.537 v -0.312 c 0,-0.86 0.696,-1.557 1.555,-1.557 h 9.053 c 0.86,0 1.557,-0.697 1.557,-1.555 v -1.811 c 0,-0.858 -0.698,-1.555 -1.557,-1.555 h -30.051 c -0.859,0 -1.557,0.696 -1.557,1.555 v 1.811 c 0,0.854 0.699,1.555 1.557,1.555 h 9.795 c 0.86,0 1.559,0.698 1.559,1.557 v 0.362 c 0,0.852 -0.687,1.549 -1.547,1.535 l -9.896,-0.037 c -1.89,-0.055 -3.438,0.588 -4.875,1.627 -2.1,1.521 -4.157,3.094 -6.218,4.662 -0.52,0.394 -1.17,0.613 -1.821,0.604 -1.983,-0.027 -3.966,-0.027 -5.949,0 -2.464,0.02 -4.062,1.605 -4.085,4.075 l 0.029,6.895 c 0,0.582 -0.471,1.061 -1.066,1.061 h -0.924 c -1.123,0 -2.034,0.911 -2.034,2.036 v 10.913 c 0,1.123 0.911,2.03 2.034,2.03 h 0.896 c 0.582,0 1.064,0.473 1.064,1.066 0,1.566 -0.01,4.489 0,6.178 0,1.569 -0.029,4.52 2.846,4.52 h 40.288 c 0.429,0 0.872,-0.082 1.256,-0.245 3.284,-1.273 6.558,-2.589 9.835,-3.861 0.292,-0.115 0.635,-0.151 0.947,-0.155 2.433,-0.02 4.857,-0.02 7.274,-0.02 2.513,0 4.128,-1.615 4.128,-4.159 v -8.312 c 0,-0.6 0.479,-1.064 1.066,-1.064 l 1.043,-0.029 c 0.835,0 0.888,-0.317 0.911,-0.896 l 0.023,-4.824 c -0.007,-0.485 -0.394,-0.873 -0.877,-0.873 z m -36.632,-3.439 c 0.608,0.461 2.253,1.306 4.94,2.535 2.578,1.16 4.367,2.409 5.371,3.736 1.006,1.331 1.506,3.005 1.506,5.023 0,1.854 -0.471,3.504 -1.414,4.944 -0.937,1.438 -2.297,2.554 -4.071,3.355 -1.771,0.794 -3.854,1.194 -6.243,1.194 -1.99,0 -3.664,-0.14 -5.017,-0.416 -1.349,-0.28 -2.756,-0.771 -4.213,-1.464 v -7.204 c 1.541,0.79 3.146,1.407 4.809,1.853 1.665,0.443 3.195,0.67 4.587,0.67 1.196,0 2.08,-0.211 2.641,-0.627 0.557,-0.421 0.835,-0.95 0.835,-1.607 0,-0.409 -0.111,-0.765 -0.339,-1.07 -0.224,-0.312 -0.584,-0.619 -1.08,-0.935 -0.5,-0.314 -1.823,-0.953 -3.983,-1.928 -1.952,-0.882 -3.412,-1.746 -4.387,-2.575 -0.977,-0.833 -1.701,-1.786 -2.174,-2.868 -0.467,-1.07 -0.706,-2.351 -0.706,-3.826 0,-2.756 1.006,-4.904 3.011,-6.449 2.006,-1.533 4.764,-2.306 8.267,-2.306 3.102,0 6.26,0.714 9.477,2.146 l -2.479,6.243 c -2.793,-1.289 -5.206,-1.927 -7.245,-1.927 -1.049,0 -1.814,0.185 -2.289,0.553 -0.479,0.371 -0.714,0.821 -0.714,1.372 10e-4,0.587 0.303,1.113 0.91,1.578 z"
   id="path510"
   style="fill:#999999" />
		<path
   d="m 233.783,263.012 h -4.009 V 263 c -0.81,0 -1.472,0.662 -1.472,1.479 v 28.104 c 0,0.806 0.66,1.471 1.472,1.471 h 4.009 c 0.812,0 1.471,-0.657 1.471,-1.471 v -28.101 c 0.002,-0.808 -0.657,-1.47 -1.471,-1.47 z"
   id="path512"
   style="fill:#999999" />
		<path
   d="m 316.583,264.25 h -1.964 c -0.817,0 -1.477,0.658 -1.477,1.472 v 25.61 c 0,0.805 0.659,1.471 1.477,1.471 h 1.964 c 0.812,0 1.475,-0.662 1.475,-1.471 v -25.61 c 0,-0.814 -0.662,-1.472 -1.475,-1.472 z"
   id="path514"
   style="fill:#999999" />
	</g>
</svg>