<?xml version="1.0" encoding="UTF-8" standalone="no"?>
<svg
   xmlns:dc="http://purl.org/dc/elements/1.1/"
   xmlns:cc="http://creativecommons.org/ns#"
   xmlns:rdf="http://www.w3.org/1999/02/22-rdf-syntax-ns#"
   xmlns:svg="http://www.w3.org/2000/svg"
   xmlns="http://www.w3.org/2000/svg"
   xml:space="preserve"
   enable-background="new 0 0 29.529 24.818"
   viewBox="0 0 29.810002 134.81957"
   height="134.81958"
   width="29.810001"
   y="0px"
   x="0px"
   id="Livello_1"
   version="1.1"><metadata
     id="metadata9"><rdf:RDF><cc:Work
         rdf:about=""><dc:format>image/svg+xml</dc:format><dc:type
           rdf:resource="http://purl.org/dc/dcmitype/StillImage" /><dc:title></dc:title></cc:Work></rdf:RDF></metadata><defs
     id="defs7" /><path
     style="opacity:0.2;fill:#f5f5f5"
     id="path2"
     d="M 29.23821,22.062581 15.966211,0.98858204 c -0.234,-0.373 -0.457,-0.638 -0.662,-0.803 -0.107,-0.145 -0.244,-0.2 -0.4,-0.182 -0.156,-0.019 -0.291,0.037 -0.398,0.182 -0.205,0.165 -0.428,0.43 -0.662,0.803 L 0.57221048,22.062581 c -0.955,1.516 -0.271,2.757 1.52100002,2.757 H 13.134211 c 0.814,0 1.381,-0.144 1.77,-0.457 0.391,0.313 0.957,0.457 1.771,0.457 H 27.71621 c 1.791,-0.001 2.477,-1.242 1.522,-2.757 z" /><path
     style="opacity:0.2;fill:#f5f5f5"
     d="m 27.716308,110.00196 h -11.041 c -0.814,0 -1.381,0.144 -1.771,0.457 -0.389,-0.313 -0.955,-0.457 -1.77,-0.457 H 2.0933081 c -1.79300004,0 -2.47600004,1.24 -1.52100004,2.757 L 13.843308,133.83195 c 0.234,0.373 0.457,0.639 0.662,0.803 0.107,0.145 0.242,0.199 0.398,0.181 0.156,0.019 0.293,-0.036 0.4,-0.181 0.205,-0.164 0.428,-0.43 0.662,-0.803 l 13.273,-21.07299 c 0.955,-1.517 0.269,-2.757 -1.522,-2.757 z"
     id="path835" /><g
     transform="translate(1.7704416e-7,56.00958)"
     id="g859"><path
       style="fill:#96bd0d"
       d="M 28.182,0 H 15.862 C 15.503,0 15.176,0.12 14.905,0.317 14.635,0.12 14.309,0 13.949,0 H 1.629 C 0.734,0 0,0.733 0,1.629 v 6.309 c 0,0.896 0.734,1.629 1.629,1.629 h 12.32 c 0.359,0 0.686,-0.12 0.955,-0.317 0.271,0.197 0.598,0.317 0.957,0.317 h 12.32 c 0.895,0 1.629,-0.733 1.629,-1.629 V 1.629 C 29.811,0.733 29.076,0 28.182,0 Z"
       id="path855" /><path
       style="fill:#96bd0d"
       d="m 28.182,14.243 h -12.32 c -0.359,0 -0.686,0.12 -0.957,0.317 -0.27,-0.197 -0.596,-0.317 -0.955,-0.317 H 1.629 C 0.734,14.243 0,14.977 0,15.872 v 6.309 c 0,0.896 0.734,1.629 1.629,1.629 h 12.32 c 0.359,0 0.686,-0.12 0.955,-0.317 0.271,0.197 0.598,0.317 0.957,0.317 h 12.32 c 0.895,0 1.629,-0.733 1.629,-1.629 v -6.309 c 0.001,-0.895 -0.734,-1.629 -1.628,-1.629 z"
       id="path857" /></g></svg>