<?xml version="1.0" encoding="UTF-8" standalone="no"?>
<svg
   xmlns:dc="http://purl.org/dc/elements/1.1/"
   xmlns:cc="http://creativecommons.org/ns#"
   xmlns:rdf="http://www.w3.org/1999/02/22-rdf-syntax-ns#"
   xmlns:svg="http://www.w3.org/2000/svg"
   xmlns="http://www.w3.org/2000/svg"
   version="1.1"
   id="Livello_1"
   x="0px"
   y="0px"
   viewBox="0 0 85.6 85.6"
   style="enable-background:new 0 0 85.6 85.6;"
   xml:space="preserve"><metadata
     id="metadata17"><rdf:RDF><cc:Work
         rdf:about=""><dc:format>image/svg+xml</dc:format><dc:type
           rdf:resource="http://purl.org/dc/dcmitype/StillImage" /><dc:title></dc:title></cc:Work></rdf:RDF></metadata><defs
     id="defs15" /><style
     type="text/css"
     id="style2">
	.st0{opacity:0.2;fill:#FFFFFF;enable-background:new    ;}
	.st1{fill:#FFFFFF;}
</style><path
     id="path4"
     d="M 10,0 C 4.5,0 0,4.5 0,10 v 75.599609 h 75.599609 c 5.5,0 10,-4.5 10,-10 V 0 Z"
     style="opacity:0.2;fill:#9e9e9e;fill-opacity:1;enable-background:new" /><path
     id="path8"
     d="m 42.8,62.2 c -1.1,0 -2,-0.9 -2,-2 V 30.5 c 0,-1.1 0.9,-2 2,-2 1.1,0 2,0.9 2,2 v 29.7 c 0,1.1 -0.9,2 -2,2 z"
     class="st1"
     style="fill:#ffffff" /></svg>