<?xml version="1.0" encoding="UTF-8" standalone="no"?>
<svg
   xmlns:dc="http://purl.org/dc/elements/1.1/"
   xmlns:cc="http://creativecommons.org/ns#"
   xmlns:rdf="http://www.w3.org/1999/02/22-rdf-syntax-ns#"
   xmlns:svg="http://www.w3.org/2000/svg"
   xmlns="http://www.w3.org/2000/svg"
   xml:space="preserve"
   style="enable-background:new 0 0 85.6 85.6;"
   viewBox="0 0 85.6 85.6"
   y="0px"
   x="0px"
   id="Livello_1"
   version="1.1"><metadata
     id="metadata19"><rdf:RDF><cc:Work
         rdf:about=""><dc:format>image/svg+xml</dc:format><dc:type
           rdf:resource="http://purl.org/dc/dcmitype/StillImage" /><dc:title></dc:title></cc:Work></rdf:RDF></metadata><defs
     id="defs17" /><style
     id="style2"
     type="text/css">
	.st0{opacity:0.2;fill:#FFFFFF;enable-background:new    ;}
	.st1{fill:#FFFFFF;}
</style><path
     id="path4"
     d="M 10 0 C 4.5 0 0 4.5 0 10 L 0 85.599609 L 75.599609 85.599609 C 81.099609 85.599609 85.599609 81.099609 85.599609 75.599609 L 85.599609 0 L 10 0 z M 70.800781 10 A 4.8000002 4.8000002 0 0 1 75.599609 14.800781 A 4.8000002 4.8000002 0 0 1 70.800781 19.599609 A 4.8000002 4.8000002 0 0 1 66 14.800781 A 4.8000002 4.8000002 0 0 1 70.800781 10 z "
     style="opacity:0.2;fill:#ffffff;enable-background:new" /><path
     class="st1"
     d="m 42.8,64.4 c -10.5,0 -19,-8.5 -19,-19 0,-8.2 5.2,-15.4 13,-18 0.2,-0.1 0.3,-0.1 0.5,-0.1 0.3,0 0.6,0.1 0.9,0.3 0.4,0.3 0.6,0.7 0.6,1.2 v 1.1 c 0,0.6 -0.4,1.2 -1,1.4 -6,2.1 -10,7.8 -10,14.1 0,8.3 6.7,15 15,15 8.3,0 15,-6.7 15,-15 0,-6.3 -4,-12 -10,-14.1 -0.6,-0.2 -1,-0.8 -1,-1.4 v -1.1 c 0,-0.5 0.2,-0.9 0.6,-1.2 0.3,-0.2 0.6,-0.3 0.9,-0.3 0.2,0 0.3,0 0.5,0.1 7.8,2.6 13,9.8 13,18 0,10.4 -8.5,19 -19,19 z"
     id="path8"
     style="fill:#ffffff" /><path
     class="st1"
     d="m 42.8,45.9 c -1.1,0 -2,-0.9 -2,-2 V 23.2 c 0,-1.1 0.9,-2 2,-2 1.1,0 2,0.9 2,2 v 20.7 c 0,1.1 -0.9,2 -2,2 z"
     id="path10"
     style="fill:#ffffff" /></svg>