<?xml version="1.0" encoding="UTF-8" standalone="no"?>
<svg
   xmlns:dc="http://purl.org/dc/elements/1.1/"
   xmlns:cc="http://creativecommons.org/ns#"
   xmlns:rdf="http://www.w3.org/1999/02/22-rdf-syntax-ns#"
   xmlns:svg="http://www.w3.org/2000/svg"
   xmlns="http://www.w3.org/2000/svg"
   version="1.1"
   id="Livello_1"
   x="0px"
   y="0px"
   width="85.596px"
   height="85.596px"
   viewBox="0 0 85.596 85.596"
   enable-background="new 0 0 85.596 85.596"
   xml:space="preserve"><metadata
   id="metadata18"><rdf:RDF><cc:Work
       rdf:about=""><dc:format>image/svg+xml</dc:format><dc:type
         rdf:resource="http://purl.org/dc/dcmitype/StillImage" /><dc:title></dc:title></cc:Work></rdf:RDF></metadata><defs
   id="defs16"><pattern
     y="0"
     x="0"
     height="6"
     width="6"
     patternUnits="userSpaceOnUse"
     id="EMFhbasepattern" /></defs><path
   style="stroke:none;opacity:0.2;fill:#9e9e9e;fill-opacity:1"
   id="path2"
   d="M 10,0 C 4.5,0 0,4.5 0,10 v 75.596 h 75.596 c 5.5,0 10,-4.5 10,-10 V 0 Z" /><g
   style="stroke:none;opacity:1"
   transform="translate(-1725.0459,-6.2511)"
   id="g20-9-5"><g
     id="g8-2"><rect
       x="1765.948"
       y="42.742001"
       width="3.8699999"
       height="7.6459999"
       id="rect6-4"
       style="stroke:none;fill:#ffffff" /></g><g
     id="g18-6-2"><g
       id="g12-0"><rect
         x="1765.948"
         y="52.617001"
         width="3.8699999"
         height="3.8710001"
         id="rect10-5"
         style="stroke:none;fill:#ffffff" /></g><g
       id="g16-3-1"><path
         d="m 1754.346,50.235 9.93,-17.188 c 0.859,-1.495 2.176,-2.351 3.611,-2.351 1.431,0 2.75,0.855 3.61,2.351 l 9.923,17.188 c 0.863,1.492 0.945,3.062 0.232,4.301 -0.721,1.241 -2.119,1.952 -3.843,1.952 h -5.481 v -3.871 h 5.481 c 0.2,0 0.343,-0.025 0.432,-0.048 -0.022,-0.089 -0.073,-0.228 -0.171,-0.4 l -9.93,-17.189 c -0.098,-0.171 -0.19,-0.285 -0.254,-0.351 -0.069,0.065 -0.16,0.18 -0.262,0.351 l -9.923,17.189 c -0.101,0.173 -0.153,0.312 -0.177,0.4 0.094,0.022 0.236,0.048 0.435,0.048 h 5.481 v 3.871 h -5.481 c -1.724,0 -3.128,-0.711 -3.84,-1.952 -0.717,-1.239 -0.633,-2.808 0.227,-4.301 z"
         id="path14-0-6"
         style="stroke:none;fill:#ffffff" /></g></g></g><text
   xml:space="preserve"
   style="font-style:normal;font-variant:normal;font-weight:normal;font-stretch:normal;font-size:13.3333px;line-height:1.25;font-family:'Handset Condensed';-inkscape-font-specification:'Handset Condensed, Normal';font-variant-ligatures:normal;font-variant-caps:normal;font-variant-numeric:normal;font-variant-east-asian:normal;letter-spacing:0px;word-spacing:0px;fill:#ffffff;fill-opacity:1;stroke:none"
   x="33.130032"
   y="69.439751"
   id="text825"><tspan
     id="tspan823"
     x="33.130032"
     y="69.439751"
     style="font-style:normal;font-variant:normal;font-weight:normal;font-stretch:normal;font-size:13.3333px;font-family:'Handset Condensed';-inkscape-font-specification:'Handset Condensed, Normal';font-variant-ligatures:normal;font-variant-caps:normal;font-variant-numeric:normal;font-variant-east-asian:normal;stroke:none">ACK</tspan></text>
</svg>
