<?xml version="1.0" encoding="UTF-8" standalone="no"?>
<svg
   xmlns:dc="http://purl.org/dc/elements/1.1/"
   xmlns:cc="http://creativecommons.org/ns#"
   xmlns:rdf="http://www.w3.org/1999/02/22-rdf-syntax-ns#"
   xmlns:svg="http://www.w3.org/2000/svg"
   xmlns="http://www.w3.org/2000/svg"
   version="1.1"
   id="Livello_1"
   x="0px"
   y="0px"
   width="232"
   height="63"
   viewBox="0 0 232 63"
   enable-background="new 0 0 1920 72"
   xml:space="preserve"><metadata
     id="metadata21"><rdf:RDF><cc:Work
         rdf:about=""><dc:format>image/svg+xml</dc:format><dc:type
           rdf:resource="http://purl.org/dc/dcmitype/StillImage" /><dc:title></dc:title></cc:Work></rdf:RDF></metadata><defs
     id="defs19" /><g
     id="g10"
     transform="translate(-907.824)"><g
       style="stroke:none;opacity:0.25"
       id="g4"><path
         style="stroke:none;fill:#ffffff"
         id="path2"
         d="m 1090.526,1 c 6.315,0 13.302,4.795 15.573,10.687 l 16.071,41.898 H 935.266 c -2.811,0 -6.705,-2.674 -7.718,-5.298 L 909.282,1 h 181.244 m 0,-1 H 907.824 l 18.791,48.647 c 1.155,2.995 5.441,5.938 8.65,5.938 h 188.36 L 1107.032,11.328 C 1104.631,5.097 1097.207,0 1090.526,0 Z" /></g></g></svg>