<?xml version="1.0" encoding="UTF-8" standalone="no"?>
<!-- Generator: Adobe Illustrator 15.0.0, SVG Export Plug-In . SVG Version: 6.00 Build 0)  -->

<svg
   xmlns:dc="http://purl.org/dc/elements/1.1/"
   xmlns:cc="http://creativecommons.org/ns#"
   xmlns:rdf="http://www.w3.org/1999/02/22-rdf-syntax-ns#"
   xmlns:svg="http://www.w3.org/2000/svg"
   xmlns="http://www.w3.org/2000/svg"
   xmlns:sodipodi="http://sodipodi.sourceforge.net/DTD/sodipodi-0.dtd"
   xmlns:inkscape="http://www.inkscape.org/namespaces/inkscape"
   version="1.1"
   id="Livello_1"
   x="0px"
   y="0px"
   width="29.810001"
   height="134.81958"
   viewBox="0 0 29.810002 134.81957"
   enable-background="new 0 0 29.529 24.818"
   xml:space="preserve"
   sodipodi:docname="CL120_01_Gear_Undefined.svg"
   inkscape:version="0.92.2 (5c3e80d, 2017-08-06)"><metadata
     id="metadata9"><rdf:RDF><cc:Work
         rdf:about=""><dc:format>image/svg+xml</dc:format><dc:type
           rdf:resource="http://purl.org/dc/dcmitype/StillImage" /><dc:title></dc:title></cc:Work></rdf:RDF></metadata><defs
     id="defs7" /><sodipodi:namedview
     pagecolor="#ff00ff"
     bordercolor="#666666"
     borderopacity="1"
     objecttolerance="10"
     gridtolerance="10"
     guidetolerance="10"
     inkscape:pageopacity="0"
     inkscape:pageshadow="2"
     inkscape:window-width="1920"
     inkscape:window-height="1017"
     id="namedview5"
     showgrid="false"
     fit-margin-top="0"
     fit-margin-left="0"
     fit-margin-right="0"
     fit-margin-bottom="0"
     inkscape:zoom="2.3773067"
     inkscape:cx="-95.915083"
     inkscape:cy="18.975141"
     inkscape:window-x="1358"
     inkscape:window-y="-8"
     inkscape:window-maximized="1"
     inkscape:current-layer="Livello_1" /><path
     d="M 29.23821,22.062581 15.966211,0.98858204 c -0.234,-0.373 -0.457,-0.638 -0.662,-0.803 -0.107,-0.145 -0.244,-0.2 -0.4,-0.182 -0.156,-0.019 -0.291,0.037 -0.398,0.182 -0.205,0.165 -0.428,0.43 -0.662,0.803 L 0.57221048,22.062581 c -0.955,1.516 -0.271,2.757 1.52100002,2.757 H 13.134211 c 0.814,0 1.381,-0.144 1.77,-0.457 0.391,0.313 0.957,0.457 1.771,0.457 H 27.71621 c 1.791,-0.001 2.477,-1.242 1.522,-2.757 z"
     id="path2"
     inkscape:connector-curvature="0"
     style="opacity:0.2;fill:#f5f5f5" /><g
     id="g823"
     transform="translate(0,56.009581)"><path
       id="path819"
       d="M 28.182,0 H 15.862 C 15.503,0 15.176,0.12 14.905,0.317 14.635,0.12 14.309,0 13.949,0 H 1.629 C 0.734,0 0,0.733 0,1.629 v 6.309 c 0,0.896 0.734,1.629 1.629,1.629 h 12.32 c 0.359,0 0.686,-0.12 0.955,-0.317 0.271,0.197 0.598,0.317 0.957,0.317 h 12.32 c 0.895,0 1.629,-0.733 1.629,-1.629 V 1.629 C 29.811,0.733 29.076,0 28.182,0 Z"
       inkscape:connector-curvature="0"
       style="opacity:0.2;fill:#f5f5f5" /><path
       id="path821"
       d="m 28.182,14.243 h -12.32 c -0.359,0 -0.686,0.12 -0.957,0.317 -0.27,-0.197 -0.596,-0.317 -0.955,-0.317 H 1.629 C 0.734,14.243 0,14.977 0,15.872 v 6.309 c 0,0.896 0.734,1.629 1.629,1.629 h 12.32 c 0.359,0 0.686,-0.12 0.955,-0.317 0.271,0.197 0.598,0.317 0.957,0.317 h 12.32 c 0.895,0 1.629,-0.733 1.629,-1.629 v -6.309 c 0.001,-0.895 -0.734,-1.629 -1.628,-1.629 z"
       inkscape:connector-curvature="0"
       style="opacity:0.2;fill:#f5f5f5" /></g><path
     id="path835"
     d="m 27.716308,110.00196 h -11.041 c -0.814,0 -1.381,0.144 -1.771,0.457 -0.389,-0.313 -0.955,-0.457 -1.77,-0.457 H 2.0933081 c -1.79300004,0 -2.47600004,1.24 -1.52100004,2.757 L 13.843308,133.83195 c 0.234,0.373 0.457,0.639 0.662,0.803 0.107,0.145 0.242,0.199 0.398,0.181 0.156,0.019 0.293,-0.036 0.4,-0.181 0.205,-0.164 0.428,-0.43 0.662,-0.803 l 13.273,-21.07299 c 0.955,-1.517 0.269,-2.757 -1.522,-2.757 z"
     inkscape:connector-curvature="0"
     style="opacity:0.2;fill:#f5f5f5" /></svg>