<?xml version="1.0" encoding="UTF-8" standalone="no"?>
<svg
   xmlns:dc="http://purl.org/dc/elements/1.1/"
   xmlns:cc="http://creativecommons.org/ns#"
   xmlns:rdf="http://www.w3.org/1999/02/22-rdf-syntax-ns#"
   xmlns:svg="http://www.w3.org/2000/svg"
   xmlns="http://www.w3.org/2000/svg"
   xml:space="preserve"
   enable-background="new 0 0 692.342 644.033"
   viewBox="0 0 692.342 644.033"
   height="644.033px"
   width="692.342px"
   y="0px"
   x="0px"
   id="Livello_1"
   version="1.1"><metadata
     id="metadata521"><rdf:RDF><cc:Work
         rdf:about=""><dc:format>image/svg+xml</dc:format><dc:type
           rdf:resource="http://purl.org/dc/dcmitype/StillImage" /><dc:title></dc:title></cc:Work></rdf:RDF></metadata><defs
     id="defs519" /><g
     id="g486"><path
       d="m 228.577,131.204 -3.95,-7.147 c -0.335,0.186 -0.668,0.373 -1.001,0.56 l 3.979,7.124 z"
       id="path2"
       style="fill:#8a8a8a" /><path
       d="m 251.425,120.096 -3.189,-7.549 c -0.354,0.149 -0.7,0.31 -1.053,0.461 l 3.223,7.526 z"
       id="path4"
       style="fill:#8a8a8a" /><path
       d="m 233.05,128.79 -3.799,-7.228 c -0.339,0.179 -0.678,0.356 -1.016,0.536 l 3.834,7.213 z"
       id="path6"
       style="fill:#8a8a8a" /><path
       d="m 219.784,136.304 -4.247,-6.979 c -0.327,0.199 -0.647,0.406 -0.972,0.606 l 4.275,6.954 z"
       id="path8"
       style="fill:#8a8a8a" /><path
       d="m 229.98,142.696 -9.434,-16.343 c -0.661,0.383 -1.314,0.777 -1.972,1.165 l 9.575,16.243 c 0.61,-0.358 1.22,-0.712 1.831,-1.065 z"
       id="path10"
       style="fill:#8a8a8a" /><path
       d="m 179.425,167.059 -5.59,-5.937 c -0.277,0.262 -0.562,0.518 -0.839,0.78 l 5.622,5.916 z"
       id="path12"
       style="fill:#8a8a8a" /><path
       d="m 248.435,125.855 -5.016,-11.202 c -0.348,0.156 -0.695,0.31 -1.043,0.467 l 5.066,11.181 z"
       id="path14"
       style="fill:#8a8a8a" /><path
       d="m 215.469,138.993 -4.392,-6.887 c -0.324,0.206 -0.645,0.417 -0.968,0.624 l 4.422,6.865 z"
       id="path16"
       style="fill:#8a8a8a" /><path
       d="m 237.577,126.473 -3.648,-7.311 c -0.342,0.172 -0.688,0.338 -1.028,0.511 l 3.685,7.3 z"
       id="path18"
       style="fill:#8a8a8a" /><path
       d="m 190.846,156.959 -5.21,-6.275 c -0.294,0.244 -0.582,0.493 -0.875,0.738 l 5.233,6.247 z"
       id="path20"
       style="fill:#8a8a8a" /><path
       d="m 186.969,160.242 -5.343,-6.169 c -0.289,0.25 -0.57,0.509 -0.858,0.761 l 5.365,6.14 z"
       id="path22"
       style="fill:#8a8a8a" /><path
       d="m 194.792,153.752 -5.075,-6.379 c -0.299,0.237 -0.595,0.479 -0.892,0.717 l 5.1,6.352 z"
       id="path24"
       style="fill:#8a8a8a" /><path
       d="m 256.134,118.168 -3.029,-7.613 c -0.357,0.143 -0.711,0.292 -1.067,0.436 l 3.062,7.593 z"
       id="path26"
       style="fill:#8a8a8a" /><path
       d="m 207.011,144.641 -4.667,-6.687 c -0.312,0.218 -0.628,0.431 -0.938,0.65 l 4.701,6.67 z"
       id="path28"
       style="fill:#8a8a8a" /><path
       d="m 198.8,150.63 -4.939,-6.481 c -0.303,0.231 -0.606,0.464 -0.908,0.696 l 4.968,6.459 z"
       id="path30"
       style="fill:#8a8a8a" /><path
       d="m 211.212,141.772 -4.53,-6.787 c -0.317,0.212 -0.64,0.416 -0.956,0.629 l 4.564,6.772 z"
       id="path32"
       style="fill:#8a8a8a" /><path
       d="m 205.281,150.891 -7.21,-9.883 c -0.309,0.226 -0.618,0.448 -0.926,0.675 l 7.259,9.854 z"
       id="path34"
       style="fill:#8a8a8a" /><path
       d="m 242.147,124.254 -3.498,-7.394 c -0.346,0.163 -0.695,0.32 -1.04,0.485 l 3.534,7.383 z"
       id="path36"
       style="fill:#8a8a8a" /><path
       d="M 321.753,113.002 319.796,94.13 c -0.762,0.079 -1.518,0.175 -2.276,0.261 l 2.127,18.844 c 0.701,-0.08 1.403,-0.161 2.106,-0.233 z"
       id="path38"
       style="fill:#8a8a8a" /><path
       d="m 315.048,102.969 -1.039,-8.175 c -0.38,0.048 -0.756,0.108 -1.135,0.158 l 1.075,8.163 z"
       id="path40"
       style="fill:#8a8a8a" /><path
       d="m 260.873,116.34 -2.868,-7.674 c -0.359,0.135 -0.716,0.272 -1.074,0.408 l 2.901,7.654 z"
       id="path42"
       style="fill:#8a8a8a" /><path
       d="m 304.99,104.465 -1.378,-8.106 c -0.376,0.063 -0.754,0.121 -1.13,0.188 l 1.415,8.107 z"
       id="path44"
       style="fill:#8a8a8a" /><path
       d="m 310.011,103.666 -1.209,-8.143 c -0.379,0.057 -0.762,0.105 -1.141,0.163 l 1.247,8.143 z"
       id="path46"
       style="fill:#8a8a8a" /><path
       d="m 280.198,110.029 -2.219,-7.91 c -0.368,0.104 -0.736,0.205 -1.104,0.311 l 2.256,7.9 z"
       id="path48"
       style="fill:#8a8a8a" /><path
       d="m 274.292,122.983 -5.822,-17.972 c -0.727,0.235 -1.455,0.465 -2.178,0.707 l 5.988,17.92 c 0.669,-0.222 1.34,-0.438 2.012,-0.655 z"
       id="path50"
       style="fill:#8a8a8a" /><path
       d="m 275.32,111.454 -2.382,-7.853 c -0.365,0.111 -0.735,0.215 -1.101,0.328 l 2.42,7.848 z"
       id="path52"
       style="fill:#8a8a8a" /><path
       d="m 265.652,114.608 -2.706,-7.731 c -0.359,0.126 -0.721,0.252 -1.08,0.38 l 2.742,7.722 z"
       id="path54"
       style="fill:#8a8a8a" /><path
       d="m 299.983,105.366 -1.545,-8.067 c -0.374,0.071 -0.749,0.142 -1.122,0.215 l 1.583,8.066 z"
       id="path56"
       style="fill:#8a8a8a" /><path
       d="m 295.855,110.373 -2.567,-12.03 c -0.374,0.08 -0.747,0.162 -1.12,0.244 l 2.622,12.014 z"
       id="path58"
       style="fill:#8a8a8a" /><path
       d="m 285.108,108.706 -2.053,-7.962 c -0.37,0.096 -0.736,0.203 -1.106,0.3 l 2.088,7.944 z"
       id="path60"
       style="fill:#8a8a8a" /><path
       d="m 290.043,107.492 -1.884,-8 c -0.373,0.088 -0.742,0.182 -1.113,0.271 l 1.919,7.984 z"
       id="path62"
       style="fill:#8a8a8a" /><path
       d="m 190.76,171.236 -12.638,-14.059 c -0.567,0.51 -1.133,1.021 -1.695,1.536 l 12.771,13.952 c 0.52,-0.477 1.038,-0.956 1.562,-1.429 z"
       id="path64"
       style="fill:#8a8a8a" /><path
       d="m 110.594,283.69 -8.022,-2.039 c -0.094,0.37 -0.181,0.745 -0.273,1.116 l 8.025,2 z"
       id="path66"
       style="fill:#8a8a8a" /><path
       d="m 111.899,278.774 -7.967,-2.205 c -0.102,0.368 -0.2,0.739 -0.301,1.108 l 7.971,2.167 z"
       id="path68"
       style="fill:#8a8a8a" /><path
       d="m 109.392,288.629 -8.071,-1.871 c -0.087,0.373 -0.166,0.748 -0.251,1.121 l 8.077,1.833 z"
       id="path70"
       style="fill:#8a8a8a" /><path
       d="m 121.877,249.972 -7.598,-3.185 c -0.147,0.353 -0.288,0.708 -0.435,1.061 l 7.606,3.147 z"
       id="path72"
       style="fill:#8a8a8a" /><path
       d="m 118.704,270.292 -11.738,-3.79 c -0.118,0.362 -0.238,0.724 -0.355,1.088 l 11.764,3.738 z"
       id="path74"
       style="fill:#8a8a8a" /><path
       d="m 119.958,254.68 -7.674,-3.027 c -0.141,0.355 -0.271,0.717 -0.409,1.073 l 7.682,2.989 z"
       id="path76"
       style="fill:#8a8a8a" /><path
       d="m 118.147,259.425 -7.736,-2.864 c -0.134,0.36 -0.272,0.719 -0.404,1.08 l 7.754,2.831 z"
       id="path78"
       style="fill:#8a8a8a" /><path
       d="m 175.761,170.581 -5.71,-5.816 c -0.272,0.268 -0.55,0.532 -0.821,0.801 l 5.74,5.796 z"
       id="path80"
       style="fill:#8a8a8a" /><path
       d="m 116.432,264.216 -7.795,-2.7 c -0.126,0.361 -0.259,0.721 -0.384,1.083 l 7.815,2.667 z"
       id="path82"
       style="fill:#8a8a8a" /><path
       d="m 113.305,273.891 -7.907,-2.369 c -0.11,0.366 -0.221,0.732 -0.329,1.1 l 7.921,2.335 z"
       id="path84"
       style="fill:#8a8a8a" /><path
       d="M 103.583,328.833 95.3,328.338 c -0.022,0.381 -0.051,0.761 -0.072,1.143 l 8.292,0.459 z"
       id="path86"
       style="fill:#8a8a8a" /><path
       d="m 108.462,319.117 -12.329,-1.256 c -0.039,0.38 -0.066,0.762 -0.104,1.142 l 12.329,1.198 z"
       id="path88"
       style="fill:#8a8a8a" /><path
       d="m 107.309,298.579 -8.14,-1.527 c -0.07,0.376 -0.147,0.749 -0.217,1.125 l 8.154,1.492 z"
       id="path90"
       style="fill:#8a8a8a" /><path
       d="m 103.329,333.912 -8.288,-0.324 c -0.015,0.382 -0.03,0.763 -0.044,1.145 l 8.294,0.287 z"
       id="path92"
       style="fill:#8a8a8a" /><path
       d="m 103.94,323.766 -8.276,-0.669 c -0.031,0.382 -0.073,0.76 -0.103,1.142 l 8.287,0.632 z"
       id="path94"
       style="fill:#8a8a8a" /><path
       d="m 104.97,313.653 -8.237,-1.014 c -0.047,0.378 -0.085,0.757 -0.13,1.136 l 8.234,0.975 z"
       id="path96"
       style="fill:#8a8a8a" /><path
       d="m 106.419,303.587 -8.168,-1.355 c -0.063,0.379 -0.127,0.758 -0.189,1.137 l 8.182,1.319 z"
       id="path98"
       style="fill:#8a8a8a" /><path
       d="m 105.644,308.611 -8.204,-1.185 c -0.055,0.378 -0.106,0.756 -0.159,1.135 l 8.204,1.146 z"
       id="path100"
       style="fill:#8a8a8a" /><path
       d="m 118.939,295.285 -18.626,-3.949 c -0.158,0.748 -0.324,1.493 -0.477,2.243 l 18.664,3.778 c 0.142,-0.693 0.294,-1.381 0.439,-2.072 z"
       id="path102"
       style="fill:#8a8a8a" /><path
       d="m 158.581,189.291 -6.301,-5.207 c -0.244,0.295 -0.479,0.597 -0.722,0.893 l 6.32,5.175 z"
       id="path104"
       style="fill:#8a8a8a" /><path
       d="m 155.386,193.246 -6.407,-5.072 c -0.237,0.3 -0.479,0.598 -0.715,0.898 l 6.434,5.046 z"
       id="path106"
       style="fill:#8a8a8a" /><path
       d="m 152.273,197.264 -6.511,-4.938 c -0.231,0.305 -0.469,0.604 -0.699,0.91 l 6.539,4.912 z"
       id="path108"
       style="fill:#8a8a8a" /><path
       d="m 158.246,207.228 -15.277,-11.144 c -0.45,0.616 -0.907,1.228 -1.352,1.849 l 15.386,11.01 c 0.411,-0.574 0.826,-1.145 1.243,-1.715 z"
       id="path110"
       style="fill:#8a8a8a" /><path
       d="m 146.299,205.487 -6.712,-4.661 c -0.218,0.313 -0.437,0.626 -0.653,0.94 l 6.738,4.634 z"
       id="path112"
       style="fill:#8a8a8a" /><path
       d="m 172.171,174.174 -5.826,-5.694 c -0.27,0.274 -0.539,0.548 -0.807,0.823 l 5.858,5.673 z"
       id="path114"
       style="fill:#8a8a8a" /><path
       d="m 133.892,249.166 -17.287,-7.727 c -0.313,0.696 -0.615,1.397 -0.921,2.098 l 17.362,7.568 c 0.282,-0.646 0.558,-1.294 0.846,-1.939 z"
       id="path116"
       style="fill:#8a8a8a" /><path
       d="m 168.655,177.851 -5.947,-5.575 c -0.262,0.278 -0.523,0.559 -0.783,0.839 l 5.973,5.548 z"
       id="path118"
       style="fill:#8a8a8a" /><path
       d="m 168.258,184.327 -9.106,-8.187 c -0.255,0.283 -0.506,0.569 -0.759,0.854 l 9.138,8.141 z"
       id="path120"
       style="fill:#8a8a8a" /><path
       d="m 161.86,185.41 -6.186,-5.332 c -0.25,0.289 -0.494,0.585 -0.742,0.875 l 6.205,5.301 z"
       id="path122"
       style="fill:#8a8a8a" /><path
       d="m 132.919,227.09 -7.193,-3.951 c -0.185,0.335 -0.377,0.664 -0.56,1 l 7.22,3.922 z"
       id="path124"
       style="fill:#8a8a8a" /><path
       d="m 130.521,231.568 -7.276,-3.799 c -0.177,0.338 -0.36,0.674 -0.536,1.013 l 7.301,3.77 z"
       id="path126"
       style="fill:#8a8a8a" /><path
       d="m 143.444,209.696 -6.815,-4.525 c -0.212,0.319 -0.423,0.641 -0.634,0.961 l 6.834,4.493 z"
       id="path128"
       style="fill:#8a8a8a" /><path
       d="m 126.004,240.677 -7.437,-3.492 c -0.163,0.346 -0.325,0.692 -0.486,1.04 l 7.454,3.459 z"
       id="path130"
       style="fill:#8a8a8a" /><path
       d="m 128.212,236.101 -7.355,-3.646 c -0.17,0.342 -0.343,0.683 -0.512,1.025 l 7.38,3.615 z"
       id="path132"
       style="fill:#8a8a8a" /><path
       d="m 140.678,213.961 -6.917,-4.387 c -0.205,0.322 -0.404,0.647 -0.607,0.971 l 6.932,4.352 z"
       id="path134"
       style="fill:#8a8a8a" /><path
       d="m 137.997,218.283 -7.016,-4.245 c -0.197,0.325 -0.387,0.655 -0.582,0.981 l 7.029,4.211 z"
       id="path136"
       style="fill:#8a8a8a" /><path
       d="m 138.949,224.699 -10.647,-6.142 c -0.191,0.331 -0.377,0.664 -0.566,0.996 l 10.674,6.092 z"
       id="path138"
       style="fill:#8a8a8a" /><path
       d="m 437.862,110.129 c -0.355,-0.14 -0.717,-0.27 -1.073,-0.408 l -2.96,7.641 1.036,0.4 z"
       id="path140"
       style="fill:#8a8a8a" /><path
       d="m 558.563,226.121 7.169,-3.979 c -0.186,-0.333 -0.372,-0.665 -0.559,-0.997 l -7.146,4.011 z"
       id="path142"
       style="fill:#8a8a8a" /><path
       d="m 560.987,230.593 7.252,-3.828 c -0.179,-0.338 -0.355,-0.677 -0.536,-1.013 l -7.238,3.863 z"
       id="path144"
       style="fill:#8a8a8a" /><path
       d="m 553.444,217.338 6.994,-4.275 c -0.2,-0.326 -0.407,-0.646 -0.607,-0.971 l -6.969,4.304 z"
       id="path146"
       style="fill:#8a8a8a" /><path
       d="m 563.311,235.114 7.34,-3.68 c -0.173,-0.343 -0.34,-0.688 -0.515,-1.03 l -7.327,3.716 z"
       id="path148"
       style="fill:#8a8a8a" /><path
       d="m 558.126,249.171 17.288,-7.726 c -0.313,-0.697 -0.629,-1.393 -0.948,-2.087 l -17.224,7.888 c 0.294,0.642 0.596,1.28 0.884,1.925 z"
       id="path150"
       style="fill:#8a8a8a" /><path
       d="m 569.713,248.956 7.584,-3.22 c -0.149,-0.353 -0.31,-0.7 -0.462,-1.052 l -7.562,3.251 z"
       id="path152"
       style="fill:#8a8a8a" /><path
       d="m 565.541,239.686 7.426,-3.528 c -0.165,-0.345 -0.32,-0.694 -0.486,-1.038 l -7.415,3.565 z"
       id="path154"
       style="fill:#8a8a8a" /><path
       d="m 550.749,213.031 6.902,-4.422 c -0.207,-0.321 -0.42,-0.638 -0.628,-0.958 l -6.876,4.449 z"
       id="path156"
       style="fill:#8a8a8a" /><path
       d="m 571.646,253.656 7.651,-3.059 c -0.143,-0.355 -0.291,-0.708 -0.436,-1.063 l -7.63,3.091 z"
       id="path158"
       style="fill:#8a8a8a" /><path
       d="m 529.437,184.575 6.162,-5.36 c -0.252,-0.288 -0.511,-0.57 -0.764,-0.857 l -6.132,5.384 z"
       id="path160"
       style="fill:#8a8a8a" /><path
       d="m 532.733,188.45 6.271,-5.229 c -0.247,-0.295 -0.498,-0.586 -0.746,-0.879 l -6.241,5.253 z"
       id="path162"
       style="fill:#8a8a8a" /><path
       d="m 523.034,183.521 9.074,-8.231 c -0.256,-0.281 -0.516,-0.561 -0.773,-0.842 l -9.033,8.27 z"
       id="path164"
       style="fill:#8a8a8a" /><path
       d="m 535.944,192.384 6.378,-5.097 c -0.239,-0.299 -0.48,-0.596 -0.721,-0.894 l -6.35,5.122 z"
       id="path166"
       style="fill:#8a8a8a" /><path
       d="m 547.96,208.779 6.8,-4.559 c -0.214,-0.317 -0.421,-0.639 -0.636,-0.955 l -6.781,4.592 z"
       id="path168"
       style="fill:#8a8a8a" /><path
       d="m 545.086,204.589 6.695,-4.695 c -0.22,-0.313 -0.435,-0.63 -0.655,-0.942 l -6.679,4.729 z"
       id="path170"
       style="fill:#8a8a8a" /><path
       d="m 533.773,207.231 15.277,-11.144 c -0.45,-0.615 -0.896,-1.234 -1.351,-1.847 l -15.173,11.28 c 0.423,0.567 0.831,1.142 1.247,1.711 z"
       id="path172"
       style="fill:#8a8a8a" /><path
       d="m 522.604,177.048 5.928,-5.606 c -0.264,-0.277 -0.52,-0.563 -0.783,-0.839 l -5.906,5.638 z"
       id="path174"
       style="fill:#8a8a8a" /><path
       d="m 539.077,196.386 6.482,-4.962 c -0.232,-0.303 -0.464,-0.606 -0.697,-0.908 l -6.462,4.993 z"
       id="path176"
       style="fill:#8a8a8a" /><path
       d="m 573.484,258.398 7.716,-2.896 c -0.136,-0.358 -0.273,-0.716 -0.41,-1.073 l -7.694,2.93 z"
       id="path178"
       style="fill:#8a8a8a" /><path
       d="m 586.911,312.556 8.237,-1.052 c -0.049,-0.38 -0.108,-0.756 -0.159,-1.135 l -8.225,1.088 z"
       id="path180"
       style="fill:#8a8a8a" /><path
       d="m 586.212,307.523 8.205,-1.224 c -0.057,-0.378 -0.107,-0.757 -0.165,-1.135 l -8.203,1.262 z"
       id="path182"
       style="fill:#8a8a8a" /><path
       d="m 587.983,322.663 8.266,-0.705 c -0.032,-0.38 -0.067,-0.759 -0.102,-1.138 l -8.258,0.742 z"
       id="path184"
       style="fill:#8a8a8a" /><path
       d="m 588.637,332.811 8.294,-0.361 c -0.018,-0.383 -0.026,-0.769 -0.045,-1.15 l -8.299,0.399 z"
       id="path186"
       style="fill:#8a8a8a" /><path
       d="m 588.807,337.893 8.308,-0.189 c -0.009,-0.383 -0.017,-0.764 -0.027,-1.146 l -8.308,0.228 z"
       id="path188"
       style="fill:#8a8a8a" /><path
       d="m 578.096,343.525 h 19.093 c 0,-0.766 -0.022,-1.526 -0.029,-2.29 l -19.09,0.172 c 0.006,0.706 0.026,1.411 0.026,2.118 z"
       id="path190"
       style="fill:#8a8a8a" /><path
       d="m 585.408,302.501 8.168,-1.395 c -0.064,-0.376 -0.122,-0.755 -0.188,-1.131 l -8.168,1.433 z"
       id="path192"
       style="fill:#8a8a8a" /><path
       d="m 588.366,327.735 8.275,-0.533 c -0.024,-0.381 -0.046,-0.763 -0.072,-1.144 l -8.28,0.571 z"
       id="path194"
       style="fill:#8a8a8a" /><path
       d="m 583.437,318.037 12.315,-1.311 c -0.041,-0.381 -0.089,-0.759 -0.131,-1.139 l -12.302,1.366 z"
       id="path196"
       style="fill:#8a8a8a" /><path
       d="m 579.822,277.719 7.962,-2.242 c -0.104,-0.371 -0.21,-0.74 -0.316,-1.109 l -7.95,2.279 z"
       id="path198"
       style="fill:#8a8a8a" /><path
       d="m 578.389,272.836 7.902,-2.408 c -0.111,-0.365 -0.215,-0.735 -0.328,-1.1 l -7.897,2.445 z"
       id="path200"
       style="fill:#8a8a8a" /><path
       d="m 572.976,269.262 11.721,-3.844 c -0.119,-0.362 -0.233,-0.727 -0.354,-1.088 l -11.709,3.899 z"
       id="path202"
       style="fill:#8a8a8a" /><path
       d="m 575.224,263.174 7.775,-2.733 c -0.128,-0.361 -0.254,-0.723 -0.383,-1.083 l -7.766,2.771 z"
       id="path204"
       style="fill:#8a8a8a" /><path
       d="m 581.149,282.622 8.013,-2.076 c -0.097,-0.371 -0.203,-0.738 -0.302,-1.108 l -7.995,2.11 z"
       id="path206"
       style="fill:#8a8a8a" /><path
       d="m 573.075,295.291 18.627,-3.949 c -0.159,-0.747 -0.323,-1.492 -0.489,-2.237 l -18.575,4.117 c 0.152,0.687 0.293,1.379 0.437,2.069 z"
       id="path208"
       style="fill:#8a8a8a" /><path
       d="m 582.369,287.558 8.055,-1.905 c -0.089,-0.373 -0.183,-0.742 -0.273,-1.114 l -8.038,1.941 z"
       id="path210"
       style="fill:#8a8a8a" /><path
       d="m 584.505,297.5 8.126,-1.563 c -0.072,-0.376 -0.143,-0.753 -0.217,-1.128 l -8.126,1.603 z"
       id="path212"
       style="fill:#8a8a8a" /><path
       d="m 552.519,223.761 10.612,-6.186 c -0.192,-0.33 -0.39,-0.656 -0.584,-0.985 l -10.577,6.23 z"
       id="path214"
       style="fill:#8a8a8a" /><path
       d="m 412.937,101.82 c -0.369,-0.103 -0.741,-0.2 -1.111,-0.301 l -2.143,7.918 1.074,0.297 z"
       id="path216"
       style="fill:#8a8a8a" /><path
       d="m 417.73,122.984 5.822,-17.972 c -0.727,-0.236 -1.45,-0.479 -2.18,-0.708 l -5.663,18.041 c 0.676,0.212 1.35,0.422 2.021,0.639 z"
       id="path218"
       style="fill:#8a8a8a" /><path
       d="m 417.989,103.277 c -0.365,-0.109 -0.73,-0.219 -1.098,-0.327 l -2.309,7.872 1.063,0.313 z"
       id="path220"
       style="fill:#8a8a8a" /><path
       d="m 407.857,100.468 c -0.37,-0.094 -0.743,-0.18 -1.113,-0.272 l -1.978,7.971 1.075,0.27 z"
       id="path222"
       style="fill:#8a8a8a" /><path
       d="m 442.593,125.414 4.96,-11.219 c -0.349,-0.154 -0.698,-0.305 -1.048,-0.458 l -4.906,11.236 z"
       id="path224"
       style="fill:#8a8a8a" /><path
       d="m 103.187,338.989 -8.301,-0.152 c -0.007,0.382 -0.01,0.765 -0.015,1.147 l 8.295,0.115 z"
       id="path226"
       style="fill:#8a8a8a" /><path
       d="m 442.728,112.113 c -0.353,-0.148 -0.709,-0.289 -1.063,-0.436 l -3.117,7.568 1.025,0.426 z"
       id="path228"
       style="fill:#8a8a8a" /><path
       d="m 427.996,106.497 c -0.362,-0.125 -0.721,-0.258 -1.083,-0.382 l -2.64,7.771 1.05,0.362 z"
       id="path230"
       style="fill:#8a8a8a" /><path
       d="m 432.946,108.26 c -0.358,-0.133 -0.717,-0.267 -1.076,-0.397 l -2.802,7.71 1.042,0.382 z"
       id="path232"
       style="fill:#8a8a8a" /><path
       d="m 402.747,99.22 c -0.37,-0.086 -0.744,-0.161 -1.115,-0.245 l -1.813,8.02 1.078,0.242 z"
       id="path234"
       style="fill:#8a8a8a" /><path
       d="m 370.27,113.003 1.956,-18.873 c -0.757,-0.079 -1.518,-0.146 -2.277,-0.217 l -1.784,18.88 c 0.701,0.065 1.403,0.137 2.105,0.21 z"
       id="path236"
       style="fill:#8a8a8a" /><path
       d="m 376.881,94.663 c -0.379,-0.047 -0.761,-0.086 -1.141,-0.131 l -0.963,8.171 1.103,0.133 z"
       id="path238"
       style="fill:#8a8a8a" /><path
       d="m 397.612,98.099 c -0.374,-0.078 -0.744,-0.165 -1.119,-0.242 l -2.461,12.068 1.066,0.224 z"
       id="path240"
       style="fill:#8a8a8a" /><path
       d="m 382.086,95.364 c -0.378,-0.055 -0.757,-0.106 -1.135,-0.159 l -1.132,8.143 1.097,0.158 z"
       id="path242"
       style="fill:#8a8a8a" /><path
       d="m 392.456,97.082 c -0.376,-0.07 -0.75,-0.146 -1.126,-0.215 l -1.474,8.095 1.09,0.201 z"
       id="path244"
       style="fill:#8a8a8a" /><path
       d="m 387.281,96.172 c -0.376,-0.063 -0.753,-0.127 -1.13,-0.188 l -1.304,8.12 1.095,0.175 z"
       id="path246"
       style="fill:#8a8a8a" /><path
       d="m 492.335,149.962 4.914,-6.509 c -0.305,-0.229 -0.602,-0.466 -0.906,-0.693 l -4.889,6.536 z"
       id="path248"
       style="fill:#8a8a8a" /><path
       d="m 500.323,156.254 5.184,-6.302 c -0.297,-0.244 -0.6,-0.479 -0.896,-0.722 l -5.15,6.32 z"
       id="path250"
       style="fill:#8a8a8a" /><path
       d="m 496.363,153.067 5.05,-6.408 c -0.299,-0.236 -0.6,-0.472 -0.9,-0.706 l -5.021,6.43 z"
       id="path252"
       style="fill:#8a8a8a" /><path
       d="m 519.075,173.394 5.806,-5.724 c -0.269,-0.272 -0.532,-0.549 -0.802,-0.82 l -5.784,5.755 z"
       id="path254"
       style="fill:#8a8a8a" /><path
       d="m 504.215,159.527 5.311,-6.189 c -0.289,-0.248 -0.584,-0.491 -0.874,-0.738 l -5.278,6.207 z"
       id="path256"
       style="fill:#8a8a8a" /><path
       d="m 485.855,150.253 7.167,-9.918 c -0.309,-0.224 -0.615,-0.452 -0.926,-0.674 l -7.126,9.956 z"
       id="path258"
       style="fill:#8a8a8a" /><path
       d="m 515.47,169.809 5.68,-5.84 c -0.273,-0.267 -0.546,-0.535 -0.821,-0.801 l -5.658,5.87 z"
       id="path260"
       style="fill:#8a8a8a" /><path
       d="m 511.79,166.304 5.558,-5.956 c -0.28,-0.261 -0.56,-0.521 -0.841,-0.781 l -5.531,5.982 z"
       id="path262"
       style="fill:#8a8a8a" /><path
       d="M 501.262,171.239 513.9,157.181 c -0.567,-0.51 -1.142,-1.014 -1.714,-1.519 l -12.511,14.174 c 0.528,0.469 1.061,0.93 1.587,1.403 z"
       id="path264"
       style="fill:#8a8a8a" /><path
       d="m 475.616,138.403 4.356,-6.9 c -0.322,-0.204 -0.647,-0.404 -0.972,-0.606 l -4.321,6.915 z"
       id="path266"
       style="fill:#8a8a8a" /><path
       d="m 462.475,130.672 3.921,-7.172 c -0.335,-0.184 -0.667,-0.371 -1.003,-0.553 l -3.891,7.193 z"
       id="path268"
       style="fill:#8a8a8a" /><path
       d="m 457.989,128.281 3.769,-7.251 c -0.34,-0.177 -0.675,-0.36 -1.016,-0.536 l -3.739,7.275 z"
       id="path270"
       style="fill:#8a8a8a" /><path
       d="m 457.074,118.658 c -0.345,-0.171 -0.687,-0.345 -1.032,-0.514 l -3.585,7.351 1.002,0.489 z"
       id="path272"
       style="fill:#8a8a8a" /><path
       d="m 462.042,142.697 9.434,-16.342 c -0.66,-0.381 -1.327,-0.753 -1.991,-1.129 l -9.271,16.405 c 0.612,0.348 1.217,0.713 1.828,1.066 z"
       id="path274"
       style="fill:#8a8a8a" /><path
       d="m 484.099,144.006 4.635,-6.703 c -0.314,-0.217 -0.627,-0.437 -0.942,-0.652 l -4.606,6.729 z"
       id="path276"
       style="fill:#8a8a8a" /><path
       d="m 479.889,141.162 4.496,-6.803 c -0.318,-0.21 -0.638,-0.42 -0.957,-0.629 l -4.464,6.822 z"
       id="path278"
       style="fill:#8a8a8a" /><path
       d="m 471.293,135.735 4.215,-6.997 c -0.327,-0.197 -0.659,-0.388 -0.988,-0.583 l -4.18,7.01 z"
       id="path280"
       style="fill:#8a8a8a" /><path
       d="m 452.334,116.377 c -0.347,-0.162 -0.692,-0.324 -1.04,-0.485 l -3.429,7.423 1.008,0.466 z"
       id="path282"
       style="fill:#8a8a8a" /><path
       d="m 472.235,550.739 4.248,6.979 c 0.326,-0.199 0.646,-0.406 0.973,-0.606 l -4.276,-6.954 z"
       id="path284"
       style="fill:#8a8a8a" /><path
       d="m 462.038,544.348 9.434,16.343 c 0.661,-0.382 1.313,-0.776 1.971,-1.164 l -9.576,-16.244 c -0.608,0.359 -1.219,0.711 -1.829,1.065 z"
       id="path286"
       style="fill:#8a8a8a" /><path
       d="m 476.55,548.051 4.392,6.887 c 0.322,-0.206 0.643,-0.415 0.964,-0.622 l -4.421,-6.864 z"
       id="path288"
       style="fill:#8a8a8a" /><path
       d="m 480.802,545.273 4.53,6.789 c 0.319,-0.214 0.646,-0.419 0.964,-0.634 l -4.566,-6.772 z"
       id="path290"
       style="fill:#8a8a8a" /><path
       d="m 501.171,530.086 5.21,6.277 c 0.294,-0.245 0.583,-0.495 0.877,-0.741 l -5.234,-6.247 z"
       id="path292"
       style="fill:#8a8a8a" /><path
       d="m 505.049,526.803 5.343,6.17 c 0.289,-0.251 0.57,-0.51 0.858,-0.762 l -5.366,-6.14 z"
       id="path294"
       style="fill:#8a8a8a" /><path
       d="m 501.257,515.809 12.638,14.06 c 0.568,-0.511 1.134,-1.022 1.697,-1.538 L 502.82,514.38 c -0.521,0.475 -1.04,0.956 -1.563,1.429 z"
       id="path296"
       style="fill:#8a8a8a" /><path
       d="m 512.59,519.988 5.59,5.937 c 0.278,-0.262 0.562,-0.517 0.839,-0.779 l -5.622,-5.917 z"
       id="path298"
       style="fill:#8a8a8a" /><path
       d="m 485.004,542.406 4.667,6.686 c 0.314,-0.219 0.631,-0.433 0.943,-0.652 l -4.701,-6.671 z"
       id="path300"
       style="fill:#8a8a8a" /><path
       d="m 497.224,533.293 5.076,6.381 c 0.299,-0.238 0.596,-0.48 0.895,-0.721 l -5.101,-6.351 z"
       id="path302"
       style="fill:#8a8a8a" /><path
       d="m 486.735,536.155 7.21,9.882 c 0.308,-0.225 0.616,-0.446 0.923,-0.672 l -7.258,-9.855 z"
       id="path304"
       style="fill:#8a8a8a" /><path
       d="m 493.217,536.416 4.938,6.48 c 0.305,-0.231 0.608,-0.464 0.912,-0.697 l -4.969,-6.459 z"
       id="path306"
       style="fill:#8a8a8a" /><path
       d="m 516.256,516.465 5.71,5.816 c 0.273,-0.269 0.552,-0.533 0.824,-0.803 l -5.741,-5.797 z"
       id="path308"
       style="fill:#8a8a8a" /><path
       d="m 588.827,348.055 8.302,0.152 c 0.007,-0.382 0.009,-0.766 0.015,-1.148 l -8.295,-0.114 z"
       id="path310"
       style="fill:#8a8a8a" /><path
       d="m 582.624,398.415 8.072,1.871 c 0.087,-0.373 0.165,-0.748 0.25,-1.121 l -8.076,-1.833 z"
       id="path312"
       style="fill:#8a8a8a" /><path
       d="m 581.422,403.353 8.023,2.039 c 0.095,-0.37 0.181,-0.743 0.272,-1.114 l -8.025,-2 z"
       id="path314"
       style="fill:#8a8a8a" /><path
       d="m 580.116,408.269 7.968,2.205 c 0.103,-0.368 0.2,-0.737 0.301,-1.106 l -7.972,-2.167 z"
       id="path316"
       style="fill:#8a8a8a" /><path
       d="m 573.075,391.758 18.627,3.949 c 0.159,-0.746 0.324,-1.491 0.477,-2.24 l -18.666,-3.778 c -0.139,0.691 -0.291,1.378 -0.438,2.069 z"
       id="path318"
       style="fill:#8a8a8a" /><path
       d="m 578.712,413.152 7.908,2.369 c 0.109,-0.365 0.219,-0.731 0.328,-1.098 l -7.922,-2.335 z"
       id="path320"
       style="fill:#8a8a8a" /><path
       d="m 584.708,388.461 8.14,1.528 c 0.071,-0.376 0.147,-0.75 0.217,-1.126 l -8.155,-1.492 z"
       id="path322"
       style="fill:#8a8a8a" /><path
       d="m 575.585,422.826 7.797,2.7 c 0.125,-0.36 0.257,-0.717 0.381,-1.077 l -7.816,-2.668 z"
       id="path324"
       style="fill:#8a8a8a" /><path
       d="m 573.87,427.615 7.736,2.865 c 0.134,-0.358 0.271,-0.715 0.403,-1.073 l -7.755,-2.831 z"
       id="path326"
       style="fill:#8a8a8a" /><path
       d="m 573.313,416.751 11.739,3.791 c 0.117,-0.364 0.239,-0.726 0.355,-1.09 l -11.764,-3.739 z"
       id="path328"
       style="fill:#8a8a8a" /><path
       d="m 588.686,353.133 8.288,0.323 c 0.016,-0.382 0.031,-0.764 0.044,-1.146 l -8.294,-0.286 z"
       id="path330"
       style="fill:#8a8a8a" /><path
       d="m 588.432,358.212 8.283,0.495 c 0.022,-0.382 0.052,-0.763 0.073,-1.145 l -8.293,-0.459 z"
       id="path332"
       style="fill:#8a8a8a" /><path
       d="m 572.058,432.365 7.674,3.027 c 0.142,-0.356 0.271,-0.719 0.412,-1.076 l -7.684,-2.99 z"
       id="path334"
       style="fill:#8a8a8a" /><path
       d="m 588.075,363.279 8.276,0.669 c 0.03,-0.382 0.073,-0.762 0.103,-1.145 l -8.287,-0.631 z"
       id="path336"
       style="fill:#8a8a8a" /><path
       d="m 583.554,367.928 12.329,1.256 c 0.038,-0.379 0.065,-0.76 0.103,-1.139 l -12.328,-1.199 z"
       id="path338"
       style="fill:#8a8a8a" /><path
       d="m 585.597,383.455 8.168,1.355 c 0.063,-0.377 0.127,-0.754 0.188,-1.132 l -8.182,-1.319 z"
       id="path340"
       style="fill:#8a8a8a" /><path
       d="m 586.371,378.436 8.205,1.186 c 0.055,-0.38 0.106,-0.762 0.16,-1.143 l -8.204,-1.146 z"
       id="path342"
       style="fill:#8a8a8a" /><path
       d="m 587.046,373.393 8.237,1.014 c 0.047,-0.379 0.086,-0.762 0.131,-1.141 l -8.235,-0.976 z"
       id="path344"
       style="fill:#8a8a8a" /><path
       d="m 519.849,512.868 5.827,5.695 c 0.267,-0.272 0.535,-0.544 0.801,-0.818 l -5.858,-5.673 z"
       id="path346"
       style="fill:#8a8a8a" /><path
       d="m 533.771,479.816 15.278,11.145 c 0.449,-0.616 0.906,-1.228 1.351,-1.848 l -15.387,-11.011 c -0.41,0.574 -0.825,1.144 -1.242,1.714 z"
       id="path348"
       style="fill:#8a8a8a" /><path
       d="m 539.743,489.78 6.512,4.938 c 0.231,-0.305 0.47,-0.604 0.699,-0.91 l -6.54,-4.913 z"
       id="path350"
       style="fill:#8a8a8a" /><path
       d="m 536.632,493.797 6.408,5.073 c 0.237,-0.299 0.477,-0.596 0.713,-0.896 l -6.434,-5.047 z"
       id="path352"
       style="fill:#8a8a8a" /><path
       d="m 545.72,481.555 6.713,4.661 c 0.218,-0.313 0.438,-0.626 0.653,-0.94 l -6.739,-4.635 z"
       id="path354"
       style="fill:#8a8a8a" /><path
       d="m 533.437,497.753 6.302,5.206 c 0.243,-0.293 0.478,-0.595 0.72,-0.89 l -6.32,-5.175 z"
       id="path356"
       style="fill:#8a8a8a" /><path
       d="m 523.363,509.192 5.948,5.575 c 0.261,-0.277 0.52,-0.556 0.779,-0.834 l -5.974,-5.549 z"
       id="path358"
       style="fill:#8a8a8a" /><path
       d="m 523.761,502.717 9.106,8.187 c 0.255,-0.284 0.507,-0.571 0.761,-0.856 l -9.139,-8.141 z"
       id="path360"
       style="fill:#8a8a8a" /><path
       d="m 530.157,501.633 6.187,5.333 c 0.249,-0.289 0.492,-0.583 0.741,-0.874 l -6.207,-5.3 z"
       id="path362"
       style="fill:#8a8a8a" /><path
       d="m 548.573,477.348 6.816,4.525 c 0.211,-0.318 0.422,-0.639 0.632,-0.958 l -6.835,-4.493 z"
       id="path364"
       style="fill:#8a8a8a" /><path
       d="m 559.097,459.956 7.195,3.951 c 0.185,-0.336 0.377,-0.666 0.561,-1.003 l -7.221,-3.922 z"
       id="path366"
       style="fill:#8a8a8a" /><path
       d="m 566.013,446.367 7.438,3.493 c 0.162,-0.347 0.325,-0.693 0.486,-1.04 l -7.455,-3.46 z"
       id="path368"
       style="fill:#8a8a8a" /><path
       d="m 563.804,450.944 7.356,3.646 c 0.171,-0.343 0.344,-0.685 0.513,-1.028 l -7.38,-3.615 z"
       id="path370"
       style="fill:#8a8a8a" /><path
       d="m 561.495,455.477 7.277,3.8 c 0.178,-0.339 0.361,-0.675 0.537,-1.016 l -7.301,-3.77 z"
       id="path372"
       style="fill:#8a8a8a" /><path
       d="m 551.337,473.087 6.918,4.387 c 0.206,-0.324 0.406,-0.651 0.611,-0.977 l -6.933,-4.353 z"
       id="path374"
       style="fill:#8a8a8a" /><path
       d="m 558.124,437.879 17.289,7.727 c 0.313,-0.697 0.615,-1.398 0.921,-2.099 l -17.364,-7.569 c -0.282,0.647 -0.558,1.296 -0.846,1.941 z"
       id="path376"
       style="fill:#8a8a8a" /><path
       d="m 554.019,468.763 7.017,4.246 c 0.198,-0.327 0.388,-0.659 0.585,-0.987 l -7.03,-4.211 z"
       id="path378"
       style="fill:#8a8a8a" /><path
       d="m 553.067,462.346 10.647,6.143 c 0.19,-0.33 0.376,-0.663 0.565,-0.994 l -10.675,-6.093 z"
       id="path380"
       style="fill:#8a8a8a" /><path
       d="m 570.138,437.076 7.599,3.185 c 0.147,-0.353 0.288,-0.708 0.435,-1.061 l -7.607,-3.147 z"
       id="path382"
       style="fill:#8a8a8a" /><path
       d="m 105.103,374.487 -8.237,1.052 c 0.048,0.381 0.109,0.757 0.159,1.137 l 8.226,-1.088 z"
       id="path384"
       style="fill:#8a8a8a" /><path
       d="m 122.302,438.088 -7.586,3.221 c 0.15,0.353 0.311,0.7 0.462,1.052 l 7.563,-3.252 z"
       id="path386"
       style="fill:#8a8a8a" /><path
       d="m 139.495,463.281 -10.613,6.188 c 0.192,0.329 0.389,0.655 0.583,0.983 l 10.579,-6.232 z"
       id="path388"
       style="fill:#8a8a8a" /><path
       d="m 133.452,460.921 -7.171,3.98 c 0.187,0.335 0.374,0.668 0.562,1.001 l 7.148,-4.011 z"
       id="path390"
       style="fill:#8a8a8a" /><path
       d="m 144.056,478.264 -6.802,4.561 c 0.214,0.317 0.422,0.639 0.636,0.955 l 6.783,-4.593 z"
       id="path392"
       style="fill:#8a8a8a" /><path
       d="m 141.266,474.012 -6.903,4.422 c 0.206,0.322 0.42,0.64 0.629,0.961 l 6.877,-4.45 z"
       id="path394"
       style="fill:#8a8a8a" /><path
       d="m 131.026,456.447 -7.254,3.83 c 0.18,0.34 0.358,0.681 0.54,1.02 l 7.239,-3.865 z"
       id="path396"
       style="fill:#8a8a8a" /><path
       d="m 133.889,437.874 -17.288,7.727 c 0.313,0.696 0.628,1.392 0.946,2.085 l 17.224,-7.889 c -0.293,-0.642 -0.594,-1.279 -0.882,-1.923 z"
       id="path398"
       style="fill:#8a8a8a" /><path
       d="m 126.476,447.361 -7.427,3.53 c 0.164,0.345 0.32,0.694 0.485,1.038 l 7.417,-3.567 z"
       id="path400"
       style="fill:#8a8a8a" /><path
       d="m 128.704,451.931 -7.34,3.68 c 0.172,0.343 0.338,0.688 0.512,1.028 l 7.33,-3.717 z"
       id="path402"
       style="fill:#8a8a8a" /><path
       d="m 138.57,469.704 -6.995,4.277 c 0.199,0.326 0.407,0.647 0.608,0.973 l 6.97,-4.305 z"
       id="path404"
       style="fill:#8a8a8a" /><path
       d="m 159.285,498.596 -6.272,5.231 c 0.244,0.293 0.494,0.581 0.74,0.873 l 6.243,-5.255 z"
       id="path406"
       style="fill:#8a8a8a" /><path
       d="m 162.582,502.469 -6.164,5.362 c 0.249,0.287 0.507,0.567 0.759,0.854 l 6.134,-5.386 z"
       id="path408"
       style="fill:#8a8a8a" /><path
       d="m 168.982,503.523 -9.075,8.232 c 0.257,0.283 0.517,0.563 0.775,0.844 l 9.035,-8.271 z"
       id="path410"
       style="fill:#8a8a8a" /><path
       d="m 169.412,509.996 -5.929,5.607 c 0.263,0.277 0.518,0.562 0.781,0.838 l 5.908,-5.64 z"
       id="path412"
       style="fill:#8a8a8a" /><path
       d="m 152.937,490.654 -6.484,4.964 c 0.232,0.303 0.465,0.606 0.697,0.907 l 6.464,-4.994 z"
       id="path414"
       style="fill:#8a8a8a" /><path
       d="m 158.241,479.811 -15.279,11.145 c 0.451,0.616 0.896,1.237 1.353,1.85 l 15.175,-11.281 c -0.424,-0.569 -0.832,-1.144 -1.249,-1.714 z"
       id="path416"
       style="fill:#8a8a8a" /><path
       d="m 156.071,494.658 -6.38,5.099 c 0.239,0.3 0.481,0.598 0.724,0.896 l 6.351,-5.123 z"
       id="path418"
       style="fill:#8a8a8a" /><path
       d="m 146.93,482.455 -6.696,4.695 c 0.22,0.313 0.434,0.631 0.654,0.942 l 6.681,-4.729 z"
       id="path420"
       style="fill:#8a8a8a" /><path
       d="m 113.918,343.525 c 0,-0.002 0,-0.004 0,-0.006 H 94.826 c 0,0.002 0,0.005 0,0.007 0,0.763 0.022,1.52 0.029,2.28 l 19.089,-0.17 c -0.006,-0.703 -0.026,-1.406 -0.026,-2.111 z"
       id="path422"
       style="fill:#8a8a8a" /><path
       d="m 172.941,513.65 -5.807,5.725 c 0.269,0.271 0.531,0.549 0.801,0.818 l 5.785,-5.756 z"
       id="path424"
       style="fill:#8a8a8a" /><path
       d="m 108.578,369.006 -12.316,1.311 c 0.041,0.379 0.089,0.757 0.131,1.136 l 12.302,-1.366 z"
       id="path426"
       style="fill:#8a8a8a" /><path
       d="m 120.368,433.389 -7.652,3.06 c 0.143,0.354 0.291,0.706 0.435,1.061 l 7.632,-3.092 z"
       id="path428"
       style="fill:#8a8a8a" /><path
       d="m 106.605,384.542 -8.169,1.394 c 0.064,0.377 0.123,0.757 0.189,1.134 l 8.168,-1.433 z"
       id="path430"
       style="fill:#8a8a8a" /><path
       d="m 103.647,359.305 -8.275,0.533 c 0.024,0.383 0.047,0.768 0.073,1.15 l 8.28,-0.571 z"
       id="path432"
       style="fill:#8a8a8a" /><path
       d="m 103.208,349.155 -8.308,0.189 c 0.009,0.382 0.017,0.764 0.027,1.145 l 8.308,-0.227 z"
       id="path434"
       style="fill:#8a8a8a" /><path
       d="m 103.378,354.234 -8.293,0.361 c 0.016,0.382 0.024,0.766 0.043,1.147 l 8.299,-0.399 z"
       id="path436"
       style="fill:#8a8a8a" /><path
       d="m 104.03,364.378 -8.266,0.705 c 0.033,0.382 0.067,0.763 0.102,1.145 l 8.258,-0.743 z"
       id="path438"
       style="fill:#8a8a8a" /><path
       d="m 107.51,389.544 -8.128,1.563 c 0.073,0.376 0.143,0.753 0.217,1.128 l 8.127,-1.603 z"
       id="path440"
       style="fill:#8a8a8a" /><path
       d="m 105.803,379.52 -8.206,1.224 c 0.057,0.378 0.107,0.759 0.165,1.137 l 8.204,-1.262 z"
       id="path442"
       style="fill:#8a8a8a" /><path
       d="m 116.792,423.871 -7.777,2.734 c 0.128,0.36 0.254,0.721 0.383,1.08 l 7.766,-2.771 z"
       id="path444"
       style="fill:#8a8a8a" /><path
       d="m 119.039,417.783 -11.722,3.845 c 0.119,0.363 0.234,0.728 0.355,1.09 l 11.709,-3.9 z"
       id="path446"
       style="fill:#8a8a8a" /><path
       d="m 118.53,428.646 -7.717,2.896 c 0.135,0.358 0.272,0.715 0.409,1.071 l 7.695,-2.93 z"
       id="path448"
       style="fill:#8a8a8a" /><path
       d="m 118.938,391.753 -18.626,3.948 c 0.158,0.748 0.323,1.494 0.489,2.24 l 18.574,-4.117 c -0.151,-0.689 -0.292,-1.381 -0.437,-2.071 z"
       id="path450"
       style="fill:#8a8a8a" /><path
       d="m 113.626,414.21 -7.903,2.408 c 0.111,0.364 0.214,0.731 0.327,1.095 l 7.898,-2.446 z"
       id="path452"
       style="fill:#8a8a8a" /><path
       d="m 112.193,409.328 -7.964,2.244 c 0.104,0.367 0.209,0.734 0.315,1.102 l 7.95,-2.279 z"
       id="path454"
       style="fill:#8a8a8a" /><path
       d="m 109.645,399.483 -8.056,1.905 c 0.088,0.372 0.183,0.742 0.272,1.113 l 8.04,-1.94 z"
       id="path456"
       style="fill:#8a8a8a" /><path
       d="m 110.865,404.421 -8.015,2.075 c 0.097,0.373 0.203,0.741 0.303,1.113 l 7.996,-2.111 z"
       id="path458"
       style="fill:#8a8a8a" /><path
       d="m 176.548,517.235 -5.682,5.841 c 0.273,0.266 0.545,0.534 0.82,0.799 l 5.659,-5.871 z"
       id="path460"
       style="fill:#8a8a8a" /><path
       d="m 199.68,537.079 -4.915,6.51 c 0.306,0.23 0.605,0.469 0.912,0.698 l 4.889,-6.538 z"
       id="path462"
       style="fill:#8a8a8a" /><path
       d="m 207.917,543.036 -4.636,6.704 c 0.314,0.217 0.628,0.438 0.944,0.653 l 4.607,-6.731 z"
       id="path464"
       style="fill:#8a8a8a" /><path
       d="m 191.694,530.789 -5.185,6.304 c 0.296,0.243 0.598,0.478 0.895,0.72 l 5.151,-6.322 z"
       id="path466"
       style="fill:#8a8a8a" /><path
       d="m 206.16,536.788 -7.168,9.92 c 0.309,0.223 0.613,0.45 0.923,0.673 l 7.128,-9.958 z"
       id="path468"
       style="fill:#8a8a8a" /><path
       d="m 180.227,520.739 -5.56,5.958 c 0.28,0.26 0.561,0.521 0.841,0.78 l 5.532,-5.983 z"
       id="path470"
       style="fill:#8a8a8a" /><path
       d="m 190.755,515.804 -12.639,14.06 c 0.567,0.51 1.141,1.013 1.713,1.518 l 12.513,-14.176 c -0.529,-0.469 -1.062,-0.93 -1.587,-1.402 z"
       id="path472"
       style="fill:#8a8a8a" /><path
       d="m 187.804,527.518 -5.312,6.19 c 0.29,0.249 0.584,0.491 0.875,0.739 l 5.279,-6.21 z"
       id="path474"
       style="fill:#8a8a8a" /><path
       d="m 195.65,533.973 -5.052,6.409 c 0.302,0.237 0.604,0.475 0.907,0.711 l 5.022,-6.432 z"
       id="path476"
       style="fill:#8a8a8a" /><path
       d="m 212.127,545.88 -4.497,6.804 c 0.319,0.211 0.639,0.421 0.959,0.631 l 4.466,-6.824 z"
       id="path478"
       style="fill:#8a8a8a" /><path
       d="m 216.399,548.638 -4.357,6.902 c 0.323,0.204 0.649,0.404 0.974,0.607 l 4.322,-6.917 z"
       id="path480"
       style="fill:#8a8a8a" /><path
       d="m 229.974,544.344 -9.434,16.343 c 0.66,0.382 1.328,0.755 1.992,1.131 l 9.273,-16.407 c -0.615,-0.348 -1.22,-0.714 -1.831,-1.067 z"
       id="path482"
       style="fill:#8a8a8a" /><path
       d="m 220.724,551.307 -4.215,6.998 c 0.327,0.197 0.659,0.388 0.988,0.584 l 4.18,-7.012 z"
       id="path484"
       style="fill:#8a8a8a" /></g><g
     id="g492"><path
       d="M 222.56,561.832 C 146.362,518.724 94.826,437.025 94.826,343.526 c 0,-129.4 98.692,-236.217 224.88,-249.386 L 312.71,32.159 C 241.559,39.613 175.616,70.88 124.319,122.098 65.086,181.241 32.465,259.88 32.465,343.526 c 0,83.644 32.621,162.278 91.854,221.42 20.236,20.204 42.753,37.302 66.967,51.063 z"
       id="path488"
       style="opacity:0.2;fill:#ffffff" /><path
       d="M 567.7,122.1 C 515.694,70.172 448.637,38.742 376.357,31.854 l -6.432,62.058 c 127.323,12.063 227.263,119.399 227.263,249.615 0,92.669 -50.62,173.753 -125.703,217.155 l 31.756,53.867 c 23.259,-13.508 44.925,-30.1 64.458,-49.604 C 626.93,505.804 659.55,427.17 659.55,343.526 659.55,259.879 626.931,181.241 567.7,122.1 Z"
       id="path490"
       style="opacity:0.2;fill:#ffffff" /></g><path
     d="m 306.479,9.548 c 1.222,-0.143 2.445,-0.275 3.67,-0.405 l -0.826,-8.091 c -0.106,0.011 -0.212,0.024 -0.317,0.036 L 308.889,0 C 224.498,8.989 146.524,48.708 89.333,111.839 31.726,175.429 0,257.711 0,343.527 c 0,62.164 16.723,123.114 48.36,176.262 30.721,51.607 74.575,94.57 126.821,124.244 l 2.1,-3.697 c -0.017,-0.01 -0.032,-0.019 -0.048,-0.027 l 2.065,-3.557 c -1.08,-0.618 -2.151,-1.252 -3.226,-1.883 l -2.096,3.554 C 149.915,624.399 127.955,607.659 108.4,588.719 l 3.07,-3.15 c -0.887,-0.861 -1.777,-1.718 -2.655,-2.591 l -3.102,3.114 C 86.172,566.744 69.108,545.172 54.823,521.92 l 3.791,-2.319 c -0.646,-1.056 -1.305,-2.106 -1.939,-3.169 l -3.807,2.271 C 38.733,495.119 27.435,469.854 19.305,443.453 l 4.477,-1.363 c -0.357,-1.183 -0.687,-2.376 -1.031,-3.563 l -4.527,1.323 C 10.514,413.792 5.876,386.663 4.613,358.985 l 5.082,-0.226 c -0.053,-1.235 -0.097,-2.473 -0.136,-3.71 l -5.104,0.171 c -0.135,-3.888 -0.204,-7.785 -0.204,-11.692 0,-24.137 2.51,-47.716 7.272,-70.488 l 5.092,1.064 c 0.254,-1.209 0.498,-2.422 0.766,-3.627 l -5.06,-1.116 c 5.986,-27.118 15.183,-53.06 27.211,-77.378 l 4.759,2.35 c 0.551,-1.107 1.108,-2.211 1.671,-3.313 l -4.731,-2.4 c 12.55,-24.68 28.015,-47.65 45.992,-68.437 l 4.152,3.57 c 0.808,-0.931 1.635,-1.849 2.454,-2.772 l -4.123,-3.623 C 107.81,96.884 128.367,78.593 150.968,62.941 l 3.072,4.379 c 1.013,-0.707 2.032,-1.402 3.053,-2.098 l -3.024,-4.413 c 22.561,-15.26 47.107,-27.896 73.229,-37.486 l 1.787,4.751 c 1.154,-0.427 2.304,-0.871 3.464,-1.285 l -1.729,-4.755 c 23.848,-8.457 48.985,-14.357 75.102,-17.4 z"
     id="path494"
     style="opacity:0.3;fill:#8a8a8a" /><path
     d="m 385.863,9.548 c -1.222,-0.143 -2.445,-0.275 -3.67,-0.405 l 0.826,-8.091 c 0.106,0.011 0.212,0.024 0.317,0.036 L 383.453,0 c 84.391,8.989 162.364,48.708 219.556,111.839 57.607,63.59 89.333,145.872 89.333,231.688 0,62.164 -16.723,123.114 -48.36,176.262 -30.721,51.607 -74.575,94.57 -126.821,124.244 l -2.1,-3.697 c 0.017,-0.01 0.032,-0.019 0.048,-0.027 l -2.065,-3.557 c 1.08,-0.618 2.151,-1.252 3.226,-1.883 l 2.096,3.554 c 24.061,-14.024 46.021,-30.764 65.576,-49.704 l -3.07,-3.15 c 0.887,-0.861 1.777,-1.718 2.655,-2.591 l 3.102,3.114 c 19.541,-19.348 36.605,-40.92 50.89,-64.172 l -3.791,-2.319 c 0.646,-1.056 1.305,-2.106 1.939,-3.169 l 3.807,2.271 c 14.135,-23.584 25.433,-48.849 33.563,-75.25 l -4.477,-1.363 c 0.357,-1.183 0.687,-2.376 1.031,-3.563 l 4.527,1.323 c 7.71,-26.058 12.348,-53.187 13.611,-80.865 l -5.082,-0.226 c 0.053,-1.235 0.097,-2.473 0.136,-3.71 l 5.104,0.171 c 0.135,-3.888 0.204,-7.785 0.204,-11.692 0,-24.137 -2.51,-47.716 -7.272,-70.488 l -5.092,1.064 c -0.254,-1.209 -0.498,-2.422 -0.766,-3.627 l 5.06,-1.116 c -5.986,-27.118 -15.183,-53.06 -27.211,-77.378 l -4.759,2.35 c -0.551,-1.107 -1.108,-2.211 -1.671,-3.313 l 4.731,-2.4 c -12.55,-24.68 -28.015,-47.65 -45.992,-68.437 l -4.152,3.57 c -0.808,-0.931 -1.635,-1.849 -2.454,-2.772 l 4.123,-3.623 C 584.532,96.884 563.975,78.593 541.374,62.941 l -3.072,4.379 c -1.013,-0.707 -2.032,-1.402 -3.053,-2.098 l 3.024,-4.413 C 515.712,45.549 491.166,32.913 465.044,23.323 l -1.787,4.751 c -1.154,-0.427 -2.304,-0.871 -3.464,-1.285 l 1.729,-4.755 C 437.674,13.577 412.537,7.677 386.42,4.634 Z"
     id="path496"
     style="opacity:0.3;fill:#8a8a8a" /><line
     style="opacity:0.3;fill:none;stroke:#ffffff;stroke-width:1.78009999;stroke-miterlimit:10"
     id="line498"
     y2="409.689"
     x2="196.13901"
     y1="409.689"
     x1="496.461"
     stroke-miterlimit="10" /><line
     style="opacity:0.3;fill:none;stroke:#ffffff;stroke-width:1.65279996;stroke-miterlimit:10"
     id="line506"
     y2="252.882"
     x2="215.34"
     y1="252.882"
     x1="474.21399"
     stroke-miterlimit="10" /><g
     id="g512"><path
       d="m 345.96,161.708 c 60.642,0 117.143,29.93 151.138,80.063 13.821,20.383 23.238,42.859 27.988,66.808 4.589,23.133 4.653,46.659 0.193,69.926 -4.461,23.267 -13.222,45.1 -26.039,64.892 -13.269,20.489 -30.329,37.885 -50.707,51.703 -30.335,20.57 -65.664,31.442 -102.169,31.442 -60.647,0 -117.15,-29.93 -151.146,-80.063 -13.821,-20.383 -23.238,-42.86 -27.988,-66.808 -4.589,-23.133 -4.653,-46.659 -0.193,-69.926 4.461,-23.266 13.221,-45.099 26.038,-64.89 13.269,-20.489 30.329,-37.885 50.707,-51.703 30.334,-20.569 65.664,-31.442 102.176,-31.444 h 0.002 m -0.007,-3.401 c -35.882,0.001 -72.149,10.377 -104.081,32.03 -84.916,57.583 -107.064,173.115 -49.47,258.051 35.937,52.995 94.425,81.556 153.962,81.556 35.881,0 72.146,-10.376 104.078,-32.029 84.917,-57.583 107.065,-173.118 49.471,-258.053 -35.937,-52.997 -94.423,-81.557 -153.96,-81.555 z"
       id="path510"
       style="fill:#ffffff" /></g><path
     d="m 368.82132,290.42441 v 0 h -0.66134 c -0.33064,0 -0.6613,-0.33065 -0.6613,-0.66132 v -6.17235 c 0,-0.88175 -0.33066,-1.54308 -1.10222,-2.09418 -1.21243,-0.88176 -4.73947,-3.41684 -5.29057,-3.7475 -0.44091,-0.22046 -0.88176,-0.33066 -1.32267,-0.33066 h -6.17232 c -0.5511,0 -0.992,-0.44088 -0.992,-0.99198 v -0.22044 c 0,-0.55108 0.4409,-0.992 0.992,-0.992 h 5.511 c 0.5511,0 0.99198,-0.44089 0.99198,-0.99198 v -1.1022 c 0,-0.5511 -0.44088,-0.99198 -0.99198,-0.99198 h -18.40681 c -0.5511,0 -0.99199,0.44088 -0.99199,0.99198 v 1.1022 c 0,0.55109 0.44089,0.99198 0.99199,0.99198 h 6.06212 c 0.5511,0 0.992,0.44092 0.992,0.992 v 0.22044 c 0,0.5511 -0.4409,0.99198 -0.992,0.99198 h -6.06212 c -1.21238,0 -2.09419,0.33066 -2.97594,0.99198 -1.32265,0.88176 -2.53507,1.87377 -3.85771,2.86574 -0.33069,0.22044 -0.77157,0.33066 -1.1022,0.33066 h -3.63731 c -1.54309,0 -2.53504,0.99199 -2.53504,2.53506 v 4.18837 c 0,0.33067 -0.33068,0.66132 -0.66135,0.66132 h -0.5511 c -0.66132,0 -1.21242,0.55115 -1.21242,1.21245 v 6.72345 c 0,0.66132 0.5511,1.21239 1.21242,1.21239 h 0.5511 c 0.33067,0 0.66135,0.3307 0.66135,0.66136 v 3.74748 c 0,0.992 0,2.75552 1.7635,2.75552 h 24.68941 c 0.22044,0 0.5511,0 0.77154,-0.11019 1.98394,-0.77152 3.96796,-1.54308 6.0621,-2.42485 0.22044,-0.11019 0.44088,-0.11019 0.5511,-0.11019 h 4.51906 c 1.54307,0 2.53508,-0.992 2.53508,-2.53506 v -5.07014 c 0,-0.33067 0.33066,-0.66132 0.6613,-0.66132 h 0.66134 c 0.5511,0 0.5511,-0.22045 0.5511,-0.5511 v -2.97595 c 0,-0.22044 -0.22044,-0.44088 -0.5511,-0.44088 z m -46.8437,-6.94388 v 0 h -2.42488 v 0 c -0.55108,0 -0.88174,0.44087 -0.88174,0.88175 v 17.30463 c 0,0.5511 0.44088,0.88174 0.88174,0.88174 h 2.42488 c 0.5511,0 0.88174,-0.44089 0.88174,-0.88174 v -17.30463 c 0,-0.44088 -0.44086,-0.88175 -0.88174,-0.88175 z m 50.81164,0.77153 h -1.21244 c -0.5511,0 -0.88179,0.44089 -0.88179,0.88177 v 15.76152 c 0,0.55111 0.44089,0.88178 0.88179,0.88178 h 1.21244 c 0.5511,0 0.88174,-0.4409 0.88174,-0.88178 v -15.76152 c 0,-0.44088 -0.44088,-0.88177 -0.88174,-0.88177 z"
     style="opacity:1;fill:#8c8c8c;fill-opacity:1;stroke-width:1.71875"
     id="BgColor00-5-1-5-1-3-4-2" /></svg>