<?xml version="1.0" encoding="UTF-8" standalone="no"?>
<svg
   xmlns:dc="http://purl.org/dc/elements/1.1/"
   xmlns:cc="http://creativecommons.org/ns#"
   xmlns:rdf="http://www.w3.org/1999/02/22-rdf-syntax-ns#"
   xmlns:svg="http://www.w3.org/2000/svg"
   xmlns="http://www.w3.org/2000/svg"
   xml:space="preserve"
   enable-background="new 0 0 285.532 243.72"
   viewBox="0 0 285.532 243.72"
   height="243.72px"
   width="285.532px"
   y="0px"
   x="0px"
   id="Livello_1"
   version="1.1"><metadata
     id="metadata21"><rdf:RDF><cc:Work
         rdf:about=""><dc:format>image/svg+xml</dc:format><dc:type
           rdf:resource="http://purl.org/dc/dcmitype/StillImage" /><dc:title></dc:title></cc:Work></rdf:RDF></metadata><defs
     id="defs19" /><g
     id="g14"><path
       id="path2"
       d="M54.774,230.758   C6.177,182.162,6.177,103.37,54.772,54.775C103.37,6.177,182.161,6.177,230.757,54.774s48.599,127.389,0,175.987"
       stroke-miterlimit="10"
       stroke-width="36.6528"
       stroke="#F5F5F5"
       fill="none"
       opacity="0.2" /><g
       id="g6"><path
         id="path4"
         d="M142.742,100.849c-1.678-0.012-3.025-1.382-3.02-3.055c0.006-0.229,0.043-0.458,0.095-0.679    c-1.418-1.775-3.27-4.098-3.386-4.247c-0.343-0.39-0.374-0.957-0.01-1.335c0.361-0.367,0.887-0.33,1.328-0.018    c0.268,0.196,2.557,1.982,4.309,3.359c0.232-0.061,0.482-0.094,0.733-0.094c1.679,0.015,3.017,1.379,3.013,3.051    C145.789,99.504,144.416,100.864,142.742,100.849L142.742,100.849z M162.475,116.005c0,0.839-0.681,1.522-1.525,1.522h-36.384    c-0.835,0-1.511-0.684-1.511-1.522c0-0.833,0.676-1.511,1.511-1.511h13.646v-3.834c-5.294-1.878-9.096-6.917-9.096-12.844    c0-7.524,6.115-13.648,13.648-13.648c7.519,0,13.646,6.124,13.646,13.648c0,5.927-3.811,10.966-9.094,12.844v3.834h13.632    C161.794,114.495,162.475,115.172,162.475,116.005L162.475,116.005z M142.765,106.914c5.009,0,9.087-4.085,9.087-9.097    c0-5.014-4.078-9.102-9.087-9.102c-5.016,0-9.098,4.088-9.098,9.102C133.667,102.829,137.75,106.914,142.765,106.914    L142.765,106.914z M124.566,120.553c-0.835,0-1.511,0.682-1.511,1.518c0,0.843,0.676,1.518,1.511,1.518h36.384    c0.845,0,1.525-0.675,1.525-1.518c0-0.836-0.681-1.518-1.525-1.518H124.566L124.566,120.553z M124.566,120.553"
         fill="#8C8C8C" /></g><path
       id="path8"
       d="M217.721,67.81C197.7,47.789,171.08,36.762,142.765,36.762c-28.315,0-54.936,11.026-74.957,31.049   c-41.33,41.33-41.329,108.58,0.002,149.911l3.535-3.535c-0.055-0.056-0.107-0.112-0.163-0.167l4.841-4.65   c-1.176-1.177-2.316-2.388-3.429-3.626l-4.901,4.595c-9.683-10.745-16.646-23.085-20.896-36.124l6.354-1.972   c-0.513-1.554-0.984-3.124-1.417-4.712l-6.385,1.84c-3.695-13.62-4.494-27.868-2.402-41.762l6.533,1.085   c0.245-1.629,0.529-3.246,0.856-4.847l-6.512-1.219c2.724-13.486,8.213-26.518,16.467-38.18l5.415,3.961   c0.948-1.339,1.929-2.653,2.942-3.94l-5.333-4.071c2.466-3.137,5.137-6.162,8.026-9.052c7.203-7.203,15.303-13.182,24.047-17.837   l3.07,5.995c1.444-0.771,2.911-1.506,4.398-2.203l-2.945-6.054c12.555-5.888,26.29-9.137,40.518-9.457l0.055,6.67   c0.758-0.019,1.518-0.029,2.279-0.029c0.884,0,1.764,0.015,2.642,0.039l0.08-6.67c14.306,0.376,28.108,3.713,40.702,9.718   l-2.982,6.033c1.483,0.707,2.947,1.448,4.387,2.229l3.105-5.97c8.529,4.61,16.438,10.485,23.487,17.534   c2.983,2.983,5.736,6.109,8.267,9.354l-5.352,4.053c1.01,1.291,1.984,2.61,2.928,3.954l5.433-3.943   c8.257,11.761,13.715,24.9,16.37,38.485l-6.527,1.18c0.318,1.604,0.594,3.222,0.828,4.853l6.548-1.046   c1.993,13.82,1.122,27.978-2.603,41.506l-6.376-1.863c-0.438,1.586-0.915,3.155-1.434,4.706l6.345,1.996   c-4.309,13.049-11.339,25.388-21.099,36.116l-4.897-4.592c-1.12,1.233-2.273,2.436-3.457,3.608l6.998,6.722   c0.045-0.045,0.088-0.094,0.133-0.14l1.431,1.431C259.053,176.393,259.053,109.142,217.721,67.81z"
       fill="#4F4F4F" /></g></svg>