<?xml version="1.0" encoding="UTF-8" standalone="no"?>
<svg
   xmlns:dc="http://purl.org/dc/elements/1.1/"
   xmlns:cc="http://creativecommons.org/ns#"
   xmlns:rdf="http://www.w3.org/1999/02/22-rdf-syntax-ns#"
   xmlns:svg="http://www.w3.org/2000/svg"
   xmlns="http://www.w3.org/2000/svg"
   version="1.1"
   id="svg2"
   xml:space="preserve"
   width="300"
   height="100"
   viewBox="0 0 300 100"><metadata
     id="metadata8"><rdf:RDF><cc:Work
         rdf:about=""><dc:format>image/svg+xml</dc:format><dc:type
           rdf:resource="http://purl.org/dc/dcmitype/StillImage" /><dc:title></dc:title></cc:Work></rdf:RDF></metadata><defs
     id="defs6"><clipPath
       clipPathUnits="userSpaceOnUse"
       id="clipPath26"><path
         d="M 0,283.464 H 368.504 V 0 H 0 Z"
         id="path24" /></clipPath></defs><g
     id="g10"
     transform="matrix(1.3333333,0,0,-1.3333333,-42.695312,262.09653)"><path
       style="fill:#575756;fill-opacity:1;fill-rule:nonzero;stroke:none;stroke-width:0.475192"
       d="m 156.16905,185.32206 0.7824,-11.23409 -0.15662,0.005 c -0.26516,0.006 -0.52999,0.009 -0.79563,0.009 -4.1299,0 -8.05194,-0.7791 -11.997,-2.38478 -4.44875,-1.63704 -7.7774,-2.30334 -11.48676,-2.30334 -0.28987,0 -0.58194,0.005 -0.87846,0.0139 l -0.13016,0.003 -0.29653,4.25098 0.15731,-0.004 c 0.24568,-0.007 0.49107,-0.009 0.73437,-0.009 4.08713,0 8.23549,0.82639 12.00187,2.39453 2.52374,0.93185 4.92718,1.62622 7.34924,2.12375 0.95087,0.19245 1.9292,0.31384 3.15187,0.38702 l -0.47264,6.7353 c -2.11033,-0.0879 -3.99884,-0.33641 -5.9362,-0.78309 -1.70119,-0.39156 -4.95156,-1.58611 -4.97769,-1.59751 -3.74024,-1.55674 -7.44739,-2.31378 -11.32876,-2.31378 -2.82882,0 -5.69745,0.39881 -8.76578,1.22232 l 1.74509,-24.82442 0.33203,-4.73755 c 2.25146,-0.613 4.60335,-0.96471 7.58661,-1.13531 l -0.79214,11.27655 0.15661,-0.002 c 0.24758,-0.007 0.49376,-0.009 0.74134,-0.009 2.3446,0 4.7029,0.26989 7.01234,0.80258 1.70451,0.39441 4.95244,1.58222 4.98047,1.59125 3.69606,1.50826 7.42611,2.27132 11.08652,2.27132 0.44906,0 0.90423,-0.0113 1.34901,-0.0355 l 0.126,-0.007 0.29862,-4.24472 -0.1615,0.007 c -0.40914,0.0176 -0.82311,0.0265 -1.23415,0.0265 -2.16783,0 -4.38177,-0.25675 -6.58286,-0.76569 -1.70262,-0.39393 -4.9476,-1.5857 -4.97421,-1.59473 -3.25128,-1.35335 -7.14026,-2.28055 -10.4343,-2.49058 l 0.47613,-6.80561 c 3.82007,0.16109 7.47245,0.96468 10.8582,2.38409 3.59674,1.49971 7.15554,2.22746 10.87631,2.22746 2.85733,0 5.91889,-0.43126 9.34979,-1.31559 l -1.39357,20.04162 -0.67241,9.65051 c -2.57222,0.63913 -5.02368,1.0151 -7.68476,1.17429 z m 22.46261,-40.91299 c -3.47271,0 -6.04757,-2.60869 -6.04757,-5.7768 0,-3.20138 2.55772,-5.80952 6.09839,-5.80952 2.16877,0 3.96439,0.9653 5.18373,2.1509 l -0.76221,0.74551 c -1.06776,-1.08439 -2.62548,-1.88082 -4.40412,-1.88082 -2.84594,0 -4.92967,2.15178 -4.92967,4.77722 0,2.62496 2.06644,4.79462 4.87815,4.79462 1.54153,0 3.11783,-0.62734 4.18416,-1.61004 l 0.76361,0.7462 c -1.20414,1.13476 -3.03281,1.86273 -4.96447,1.86273 z m 32.5767,0 c -1.94781,0 -4.37001,-0.76228 -4.37001,-3.18528 0,-2.47291 2.65971,-2.64147 4.99718,-2.77738 1.86371,-0.11832 3.87928,-0.33917 3.87928,-2.20241 0,-1.67695 -1.76137,-2.43907 -3.82846,-2.43907 -2.45627,0 -3.99723,1.15115 -4.96377,2.04927 l -0.69539,-0.77892 c 1.16897,-1.08392 2.89799,-2.25322 5.64176,-2.25322 2.65965,0 4.98117,1.06767 4.98117,3.55768 0,2.86256 -3.10004,3.04908 -5.01459,3.16787 -1.88033,0.10122 -3.86256,0.18653 -3.86256,1.76179 0,1.57527 1.69389,2.13419 3.18458,2.13419 2.04998,0 3.48935,-0.79601 4.16745,-1.42279 l 0.69469,0.77892 c -0.83016,0.69473 -2.57459,1.60935 -4.81133,1.60935 z M 72.192855,144.15499 v -11.06216 h 2.423066 v 4.64218 h 4.082529 v 2.08338 h -4.082529 v 2.23582 h 6.708156 v 2.10078 z m 9.944247,0 v -11.06216 h 9.604559 v 2.08338 h -7.182189 v 2.64303 h 4.083225 v 2.08407 h -4.083225 v 2.1509 h 6.793774 v 2.10078 z m 33.593678,0 v -11.06216 h 9.60525 v 2.08338 h -7.18287 v 2.64303 h 4.08252 v 2.08407 h -4.08252 v 2.1509 h 6.79307 v 2.10078 z m 10.1308,0 v -2.10078 h 4.01501 v -8.96138 h 2.42237 v 8.96138 h 3.9983 v 2.10078 z m 11.38444,0 v -2.10078 h 4.01501 v -8.96138 h 2.42167 v 8.96138 h 3.99831 v 2.10078 z m 11.67193,0 v -11.06146 h 2.42237 v 11.06146 z m 4.09993,0 4.53985,-5.81021 v -5.25195 h 1.13532 v 5.25195 l 4.53916,5.81021 h -1.33718 l -3.72752,-4.79393 -3.71013,4.79393 z m 13.65298,0 -5.13292,-11.06216 h 1.16942 l 1.62675,3.5911 h 5.70927 l 1.64276,-3.5911 h 1.23625 l -5.13293,11.06216 z m 18.58473,0 v -11.06216 h 1.13461 v 5.48862 h 7.38615 v -5.48862 h 1.13531 v 11.06216 h -1.13531 v -4.57397 h -7.38615 v 4.57397 z m 11.07886,0 v -1.01628 h 4.26908 v -10.04588 h 1.13532 v 10.04588 h 4.26838 v 1.01628 z m -103.778372,-4.7e-4 v -11.0617 h 2.422372 v 4.06582 h 3.286208 l 2.236512,-4.06582 h 2.77738 l -2.59152,4.45563 c 1.35525,0.59304 2.23652,1.69338 2.23652,3.11706 0,0.88053 -0.33942,1.67743 -0.91535,2.28664 -0.71089,0.74557 -1.74436,1.20213 -3.319628,1.20213 z m 11.248712,0 v -11.0617 h 2.42237 v 4.06582 h 3.28621 l 2.23651,-4.06582 h 2.77738 l -2.59152,4.45563 c 1.35525,0.59304 2.23651,1.69338 2.23651,3.11706 0,0.88053 -0.33941,1.67743 -0.91535,2.28664 -0.71089,0.74557 -1.74436,1.20213 -3.31962,1.20213 z m 63.3415,-1.32071 h 0.10162 l 2.38827,-5.23385 h -4.87886 z m -72.16784,-0.7288 h 3.794349 c 0.440029,0 0.932203,-0.0506 1.321861,-0.47403 0.25375,-0.25328 0.38911,-0.59339 0.38911,-0.96547 0,-0.84726 -0.694334,-1.4576 -1.541128,-1.4576 H 94.97845 Z m 11.24871,0 h 3.79435 c 0.4405,0 0.9322,-0.0506 1.32186,-0.47403 0.25375,-0.25328 0.38911,-0.59339 0.38911,-0.96547 0,-0.84726 -0.69433,-1.4576 -1.54113,-1.4576 h -3.96419 z"
       id="bgColor00" /></g></svg>
